<svg width="154" height="156" viewBox="0 0 154 156" fill="none" xmlns="http://www.w3.org/2000/svg">
<g filter="url(#filter0_d_3030:95684)">
<path d="M101.749 125.251C129.502 111.583 140.92 78.0045 127.251 50.2514C113.583 22.4983 80.0045 11.0803 52.2514 24.7485C24.4983 38.4168 13.0803 71.9954 26.7486 99.7485C40.4168 127.502 73.9955 138.92 101.749 125.251Z" fill="#FFD05D"/>
<path d="M120.126 39.1475C123.147 51.4571 121.905 64.4275 116.602 75.9398C111.299 87.4522 102.249 96.8261 90.9298 102.53C79.6109 108.235 66.6922 109.932 54.284 107.345C41.8758 104.759 30.7114 98.0408 22.6145 88.289C24.6268 96.4655 28.4565 104.083 33.8189 110.575C39.1813 117.067 45.9383 122.267 53.5875 125.787C61.2366 129.308 69.581 131.058 78.0001 130.909C86.4191 130.76 94.6962 128.714 102.216 124.925C109.735 121.135 116.304 115.699 121.432 109.021C126.561 102.343 130.118 94.5943 131.839 86.3517C133.56 78.1091 133.401 69.5845 131.373 61.412C129.345 53.2394 125.501 45.6293 120.126 39.1475Z" fill="#FDC453"/>
<path d="M29.2664 64.9912C32.7645 54.7094 39.3936 45.7808 48.2237 39.4578C57.0539 33.1349 67.6419 29.7349 78.5024 29.7349C89.3629 29.7349 99.951 33.1349 108.781 39.4578C117.611 45.7808 124.24 54.7094 127.738 64.9912C126.355 58.0099 123.554 51.3868 119.508 45.5318C115.462 39.6769 110.257 34.7146 104.216 30.9523C98.1743 27.19 91.4252 24.7077 84.3859 23.659C77.3465 22.6103 70.1669 23.0176 63.2913 24.8556C56.4158 26.6935 49.9906 29.9232 44.4135 34.3445C38.8365 38.7658 34.2262 44.2848 30.8682 50.5597C27.5101 56.8347 25.4756 63.7321 24.8908 70.825C24.3059 77.9179 25.183 85.0554 27.4679 91.7957C25.6967 82.8584 26.3171 73.6118 29.2664 64.9912Z" fill="#FFD77F"/>
<path d="M65.7367 56.7954C64.5049 60.4334 61.7456 62.7902 59.594 62.0594C57.4425 61.3285 56.6869 57.7808 57.9516 54.1428C59.2163 50.5049 61.9345 48.148 64.0943 48.8871C66.2541 49.6262 66.9768 53.1984 65.7367 56.7954Z" fill="#303030"/>
<path d="M104.81 70.0826C103.578 73.7205 100.827 76.0774 98.6674 75.3383C96.5076 74.5992 95.7603 71.0598 97.0249 67.43C98.2896 63.8003 101.008 61.4352 103.168 62.166C105.327 62.8969 106.05 66.4446 104.81 70.0826Z" fill="#303030"/>
<path d="M39.6547 67.8817C37.6669 76.9758 39.0978 86.4834 43.6742 94.5896C48.2507 102.696 55.6521 108.833 64.4656 111.829C73.2791 114.825 82.8873 114.47 91.4559 110.833C100.025 107.195 106.953 100.529 110.92 92.1076L39.6547 67.8817Z" fill="#695342"/>
<path d="M43.1943 93.6351C47.6084 102.005 54.9972 108.417 63.9047 111.609C72.8122 114.802 82.5923 114.542 91.3176 110.881L91.2519 109.994C71.2881 90.1532 43.5721 93.5858 43.1943 93.6351Z" fill="#F06669"/>
</g>
<defs>
<filter id="filter0_d_3030:95684" x="0.972412" y="2.97229" width="152.055" height="152.055" filterUnits="userSpaceOnUse" color-interpolation-filters="sRGB">
<feFlood flood-opacity="0" result="BackgroundImageFix"/>
<feColorMatrix in="SourceAlpha" type="matrix" values="0 0 0 0 0 0 0 0 0 0 0 0 0 0 0 0 0 0 127 0" result="hardAlpha"/>
<feOffset dy="4"/>
<feGaussianBlur stdDeviation="10"/>
<feComposite in2="hardAlpha" operator="out"/>
<feColorMatrix type="matrix" values="0 0 0 0 0 0 0 0 0 0 0 0 0 0 0 0 0 0 0.2 0"/>
<feBlend mode="normal" in2="BackgroundImageFix" result="effect1_dropShadow_3030:95684"/>
<feBlend mode="normal" in="SourceGraphic" in2="effect1_dropShadow_3030:95684" result="shape"/>
</filter>
</defs>
</svg>
