<?xml version="1.0" encoding="UTF-8"?>
<svg width="462px" height="105px" viewBox="0 0 462 105" version="1.1" xmlns="http://www.w3.org/2000/svg" xmlns:xlink="http://www.w3.org/1999/xlink">
    <!-- Generator: Sketch 46 (44423) - http://www.bohemiancoding.com/sketch -->
    <title>Group 41</title>
    <desc>Created with Sketch.</desc>
    <defs></defs>
    <g id="Symbols" stroke="none" stroke-width="1" fill="none" fill-rule="evenodd">
        <g id="Artboard" transform="translate(-281.000000, -460.000000)">
            <g id="Group-41" transform="translate(281.000000, 460.000000)">
                <g id="Page-1">
                    <path d="M105,105 L12.9043293,105 C5.83219512,105 0,99.204939 0,92.1328049 L0,0 L92.1908537,0 C99.2629878,0 105,5.77414634 105,12.8458537 L105,105 Z" id="Fill-1" fill="#4CA6FF"></path>
                    <path d="M82.9905551,53.1634247 L82.8296942,53.8990528 C87.6177728,55.2506842 85.0645885,60.748738 81.6285994,61.1054836 L81.4540117,61.8168461 C86.0533469,62.9713736 83.860062,68.627366 80.2627831,69.0109313 L80.092056,69.7159083 C83.8463352,70.3272288 82.9390796,76.6830896 77.2548985,76.6830896 L48.9412335,76.7307692 C46.949561,76.7307692 45.1324762,74.4962137 43.6607061,74.4962137 L42.4038462,74.4962137 L42.4038462,52.5661526 C44.1196959,51.5708409 45.9462179,50.2975402 47.0413589,49.3801336 C49.1016655,47.6313141 57.5449329,34.0826452 57.5449329,32.3844852 C57.5449329,30.6863252 57.3673425,23.3500527 57.3673425,23.3500527 C57.3673425,23.3500527 59.0081238,21.2270334 62.7113564,22.7791746 C62.7113564,22.7791746 65.8281974,28.5122207 66.1464875,33.1311818 C66.1464875,33.1311818 64.7424935,42.567911 63.9930961,45.5478859 L83.6065452,45.5478859 C88.4319435,45.5478859 87.5113901,52.4601506 82.9905551,53.1634247 L82.9905551,53.1634247 Z M20.1923077,78.75 L38.3653846,78.75 L38.3653846,50.4807692 L20.1923077,50.4807692 L20.1923077,78.75 Z M86.8090272,54.4632664 C90.3988637,50.900008 89.2963655,43.6676984 83.0865498,43.6676984 L66.7401481,43.6813491 C67.3624092,40.2268698 68.2678652,34.4820595 68.2269213,33.9509621 C67.8831637,28.8187268 64.613201,22.5701205 64.48056,22.3184358 C63.8817563,21.2020647 60.8634276,19.697502 57.8348629,20.3510291 C53.9251527,21.188414 53.5135818,23.6864915 53.5408777,24.3771314 C53.5408777,24.3771314 53.7008146,31.2114379 53.7281105,33.0320996 C51.8527973,37.140106 45.3913476,47.8998409 43.4379852,48.7235751 C42.9581746,48.444589 42.4412586,48.2351361 41.8829723,48.2351361 L21.2421589,48.2351361 C19.4862653,48.2351361 18.1730769,49.7699863 18.1730769,51.5262337 L18.1730769,80.0570425 C18.1730769,81.598718 19.5135612,82.7884615 21.0549262,82.7884615 L39.5965147,82.7884615 C41.2329888,82.7884615 42.4834819,81.4660503 42.4834819,79.8185819 L42.4834819,78.872418 C42.4834819,78.872418 43.2191916,78.7824087 43.5258439,78.9794906 C44.7234512,79.7388106 46.2422117,80.6555402 48.1576158,80.6555402 L75.8318131,80.6555402 C86.1726917,80.6555402 85.0701935,71.509147 84.1246467,70.2601083 C85.8664659,68.3575425 86.9416682,65.0148282 85.468543,62.3670196 C86.6115585,61.1585064 88.6058647,57.8802064 86.8090272,54.4632664 L86.8090272,54.4632664 Z" id="Fill-3" fill="#FEFEFE"></path>
                </g>
                <path d="M152.452222,61.5745856 C152.452222,63.2610497 151.244231,64.3342541 149.130246,64.3342541 C146.663931,64.3342541 143.593619,63.1588398 141.5803,60.5524862 L137,66.1229282 C138.711321,69.9558011 144.197615,72 148.928914,72 C155.723866,72 161.008828,67.7071823 161.008828,61.4723757 C161.008828,49.820442 146.3116,51.2513812 146.3116,45.3232044 C146.3116,43.6878453 147.620257,42.6657459 149.834908,42.6657459 C152.452222,42.6657459 153.609881,43.5856354 155.170203,45.0676796 L159.498838,38.9350829 C157.284188,36.5331492 153.660214,35 149.130246,35 C142.08363,35 137.754995,39.8038674 137.754995,45.3232044 C137.754995,56.8729282 152.452222,56.2085635 152.452222,61.5745856 Z M169.565433,71.3867403 L177.618708,71.3867403 L177.618708,48.7472376 L187.383305,62.5455801 L188.540963,62.5455801 L198.355893,48.5939227 L198.355893,71.3867403 L206.409168,71.3867403 L206.409168,35.6132597 L198.80889,35.6132597 L188.540963,50.6892265 L177.669041,35.6132597 L169.565433,35.6132597 L169.565433,71.3867403 Z M217.482422,71.3867403 L225.535698,71.3867403 L225.535698,48.7472376 L235.300294,62.5455801 L236.457953,62.5455801 L246.272882,48.5939227 L246.272882,71.3867403 L254.326158,71.3867403 L254.326158,35.6132597 L246.725879,35.6132597 L236.457953,50.6892265 L225.586031,35.6132597 L217.482422,35.6132597 L217.482422,71.3867403 Z M278.334985,61.5745856 C278.334985,63.2610497 277.126994,64.3342541 275.013009,64.3342541 C272.546694,64.3342541 269.476382,63.1588398 267.463063,60.5524862 L262.882763,66.1229282 C264.594084,69.9558011 270.080378,72 274.811677,72 C281.606628,72 286.891591,67.7071823 286.891591,61.4723757 C286.891591,49.820442 272.194363,51.2513812 272.194363,45.3232044 C272.194363,43.6878453 273.50302,42.6657459 275.717671,42.6657459 C278.334985,42.6657459 279.492644,43.5856354 281.052966,45.0676796 L285.381601,38.9350829 C283.166951,36.5331492 279.542977,35 275.013009,35 C267.966393,35 263.637757,39.8038674 263.637757,45.3232044 C263.637757,56.8729282 278.334985,56.2085635 278.334985,61.5745856 Z M291.421558,43.2790055 L301.991482,43.2790055 L301.991482,71.3867403 L310.044758,71.3867403 L310.044758,43.2790055 L320.614682,43.2790055 L320.614682,35.6132597 L291.421558,35.6132597 L291.421558,43.2790055 Z M356.904755,35.6132597 L348.851479,35.6132597 L348.851479,54.9820442 C348.851479,60.7058011 347.391823,64.3342541 342.509525,64.3342541 C336.872232,64.3342541 335.211244,60.0925414 335.211244,54.5220994 L335.211244,35.6132597 L327.157968,35.6132597 L327.157968,56.2596685 C327.157968,66.7361878 333.44959,72 342.509525,72 C350.05947,72 356.904755,67.5538674 356.904755,56.6174033 L356.904755,35.6132597 Z M367.474679,71.3867403 L367.474679,35.6132597 L368.17934,35.6132597 C370.04166,35.6132597 376.282949,35.4599448 378.598265,35.4599448 C392.691498,35.4599448 398.379123,43.6878453 398.379123,53.1933702 C398.379123,63.2099448 391.634505,71.4889503 378.195602,71.4889503 C376.333282,71.4889503 371.702648,71.3867403 368.330339,71.3867403 L367.474679,71.3867403 Z M378.4976,43.1256906 C377.641939,43.1256906 376.534614,43.1256906 375.527954,43.2790055 L375.527954,63.7209945 C376.584947,63.8232044 377.289608,63.8232044 378.447267,63.8232044 C385.393217,63.8232044 389.822518,59.9903315 389.822518,53.1933702 C389.822518,46.6008287 385.040886,43.1256906 378.4976,43.1256906 Z M407.439058,71.3867403 L415.492334,71.3867403 L415.492334,35.6132597 L407.439058,35.6132597 L407.439058,71.3867403 Z M424.552269,53.5 C424.552269,43.1256906 432.051882,35 443.276134,35 C453.997057,35 462,42.1035912 462,53.5 C462,64.3342541 453.997057,72 443.276134,72 C432.555211,72 424.552269,64.8964088 424.552269,53.5 Z M433.108874,53.5 C433.108874,59.6325967 437.638842,64.3342541 443.276134,64.3342541 C449.97042,64.3342541 453.443395,59.5303867 453.443395,53.5 C453.443395,46.9585635 448.96376,42.6657459 443.276134,42.6657459 C437.43751,42.6657459 433.108874,46.9585635 433.108874,53.5 Z" id="SMMSTUDIO" fill="#FFFFFF"></path>
            </g>
        </g>
    </g>
</svg>