<svg width="12" height="9" viewBox="0 0 12 9" fill="none" xmlns="http://www.w3.org/2000/svg">
<path d="M2.0001 0.799804L6.0001 5.7998L10.0001 0.799805L11.6001 1.7998L6.0001 8.7998L0.400099 1.7998L2.0001 0.799804Z" fill="white"/>
</svg>
