<svg width="513" height="447" viewBox="0 0 513 447" fill="none" xmlns="http://www.w3.org/2000/svg">
<path fill-rule="evenodd" clip-rule="evenodd" d="M397.617 363.775C400.514 373.587 398.666 385.034 392.031 393.105C387.745 398.317 377.553 402.979 371.833 397.552C369.275 395.124 368.192 386.817 367.099 382.941C366.094 379.376 364.413 372.774 365.16 369.782C366.247 365.424 374.935 366.431 378.995 366.049C385.227 365.464 391.413 364.574 397.617 363.775ZM479.594 368.759C480.958 371.762 483.134 373.752 484.062 377.084C484.668 379.259 485.033 381.441 485.273 383.674C485.564 386.379 485.763 386.276 483.897 387.54C481.049 389.471 473.764 389.322 470.298 389.882C465.775 390.612 461.274 391.472 456.749 392.2C457.846 387.988 457.271 383.455 458.405 379.159C459.507 374.986 461.425 370.865 464.133 367.436C466.147 364.885 469.077 361.828 472.7 361.813C477.37 361.792 478.107 365.488 479.594 368.759ZM192.422 278.516C193.115 287.546 191.828 297.162 186.693 304.921C184.518 308.208 181.351 309.975 178.78 312.805C175.805 316.079 174.191 320.127 169.491 321.528C166.458 322.432 162.899 321.808 159.746 322.215C154.512 322.892 152.966 322.158 148.553 319.449C145.383 317.502 141.729 317.867 138.386 315.733C134.377 313.174 130.887 309.525 127.091 306.627C148.398 296.19 170.365 287.301 192.422 278.516ZM249.698 283.871C257.853 287.708 262.165 294.253 264.495 302.701C242.001 307.843 220.109 314.133 198.015 321.225C204.185 305.532 211.113 291.162 227.99 283.863C231.357 282.406 234.817 280.088 238.65 280.143C242.467 280.197 246.351 282.297 249.698 283.871ZM454.861 307.136C466.453 313.237 460.56 332.736 456.509 341.393C451.354 337.601 445.949 333.908 440.915 330.215C435.412 326.179 430.466 320.984 425.445 316.386C428.103 315 429.831 312.795 432.301 311.212C434.748 309.644 437.174 309.532 439.914 308.92C445.161 307.746 449.407 304.264 454.861 307.136ZM364.398 263.198C365.323 264.385 366.429 265.504 367.301 266.724C369.418 269.686 371.25 272.698 373.705 275.446C378.054 280.314 384.386 286.732 391.511 287.176L391.718 289.255C389.617 289.202 388.374 287.392 386.551 287.208C385.119 287.064 383.116 288.157 381.361 288.003C375.934 287.525 370.603 287.252 365.093 287.398C354.22 287.686 343.531 289.42 332.843 290.802C334.885 283.523 338.696 276.069 344.769 271.2C346.868 269.517 348.879 267.203 351.249 265.861C352.676 265.054 354.187 264.992 355.655 264.361C357.355 263.631 359.536 261.195 361.291 260.961C363.126 260.717 363.133 261.575 364.398 263.198ZM451.534 263.861C457.237 268.44 461.62 274.25 466.31 279.75C470.556 284.727 476.31 291.828 477.819 298.236C470.29 301.778 457.377 298.536 452.521 291.984C446.532 283.904 449.467 272.658 451.534 263.861ZM320.963 237.753C319.84 245.346 316.19 253.806 310.712 259.476C308.351 261.921 306.281 265.108 303.598 267.246C300.094 270.038 297.273 268.608 293.206 269.041C288.838 269.506 286.007 272.356 281.352 271.582C278.037 271.03 274.982 269.194 271.866 268.637C268.461 268.028 265.49 268.389 262.106 266.704C257.92 264.62 254.58 260.52 251.325 257.406C253.039 256.049 256.498 255.952 258.691 255.219C261.586 254.249 264.478 253.289 267.389 252.361C273.402 250.444 279.399 248.486 285.424 246.602C296.901 243.012 309.018 239.602 320.963 237.753Z" fill="#221EC4"/>
<path fill-rule="evenodd" clip-rule="evenodd" d="M501.004 50.283L500.629 52.8003C504.293 53.4318 504.401 51.219 501.004 50.283ZM485.06 45.9427C483.095 45.2576 479.882 46.2619 481.427 48.608C483.607 51.9211 484.6 47.5961 485.06 45.9427ZM326.639 137.684C326.935 137.389 323.453 130.736 323.004 129.621C320.756 130.903 320.604 130.593 321.52 132.737C322.31 134.586 325.061 136.464 326.639 137.684ZM121.342 139.509C120.268 139.415 118.131 138.776 117.22 139.149C115.947 139.671 116.289 140.879 116.135 142.641C119.859 142.468 120.38 142.961 121.342 139.509ZM116.513 135.856C118.334 136.183 120.153 136.51 121.973 136.837C122.362 134.752 123.392 131.304 119.553 132.563C119.193 132.681 116.975 135.178 116.513 135.856ZM330.943 140.143C329.007 142.066 337.993 146.138 338.919 144.834C340.941 141.988 332.249 140.569 330.943 140.143ZM375.392 117.407C376.479 117.3 377.566 117.193 378.653 117.086C378.277 115.501 377.133 109.657 374.755 109.971C372.393 110.282 375.057 116.17 375.392 117.407ZM379.357 126.947C379.388 125.63 379.927 122.71 379.412 121.442C379.062 120.58 377.621 117.962 375.55 119.663C375.109 120.025 374.907 125.298 375.042 125.469C375.606 126.186 378.554 126.671 379.357 126.947ZM368.122 143.857C365.891 142.152 361.04 139.636 358.892 143.492C355.897 148.867 366.186 145.275 368.122 143.857ZM355.369 144.306C352.44 144.854 349.48 144.783 346.515 144.576C343.192 144.343 342.405 143.328 341.437 146.51C345.001 147.802 352.59 148.698 356.196 147.469C355.921 146.414 355.645 145.36 355.369 144.306ZM373.846 129.702C372.82 131.803 370.598 134.556 370 136.748C369.559 138.365 369.386 137.557 369.755 138.812C369.887 139.259 371.69 141.133 372.006 141.586C374.197 139.927 376.838 138.234 377.959 135.68C379.754 131.59 377.446 131.262 373.846 129.702ZM324.013 121.095C316.565 123.412 307.416 125.682 299.531 124.992C299.427 125.667 312.903 129.594 314.514 129.311C316.161 129.021 316.292 126.727 318.265 125.502C320.44 124.152 322.235 124.956 324.64 124.745C324.431 123.528 324.222 122.312 324.013 121.095ZM348.533 152.31C341.677 151.871 335.552 150.233 329.487 147.114C326.003 145.322 323.501 142.724 321.173 139.726C319.369 137.404 319.738 137.595 316.907 136.807C314.815 136.226 312.242 136.462 310.094 136.192C302.902 135.288 295.735 133.108 288.895 130.839C281.218 128.293 274.606 124.703 266.174 124.913C251.696 125.273 239.953 136.23 224.85 131.628C218.858 129.803 212.652 127.379 207.805 123.465C201.503 118.374 197.676 115.358 188.794 117.161C181.644 118.613 176.158 122.402 170.031 125.894C163.049 129.875 155.43 132.259 147.645 134.361C144.595 135.184 141.77 135.663 138.575 135.824C136.673 135.919 127.664 134.548 126.551 135.516C125.475 136.453 124.985 142.913 125.1 144.092C125.291 146.059 124.423 146.262 126.525 147.091C127.985 147.666 132.492 147.084 134.302 147.291C148.858 148.953 163.772 149.451 178.095 151.96C191.557 154.317 205.068 156.224 218.378 158.989C235.693 162.585 253.327 164.226 270.651 167.709C279.026 169.392 287.471 171.763 295.746 173.556C303.282 175.188 310.854 176.703 318.433 178.182C318.155 177.141 316.58 173.347 319.095 173.697C320.688 173.918 323.362 179.42 324.203 180.658C328.071 186.358 332.191 190.684 337.454 195.22C342.758 199.792 348.098 204.316 353.482 208.803C357.88 212.468 367.328 217.935 367.084 224.336C364.405 224.846 359.086 220.1 357.08 218.814C353.022 216.212 349.131 213.376 345.347 210.416C341.787 215.625 350.225 221.662 351.184 226.589C349.013 226.598 345.389 220.626 344.072 219.044C340.574 222.304 336.648 225.18 334.129 229.275C362.356 228.071 366.984 263.079 387.359 274.946C391.874 277.575 397.53 278.661 402.691 277.507C408.067 276.304 413.235 274.606 417.965 271.569C428.528 264.786 436.269 251.745 440.403 240.545C442.686 234.361 444.84 228.37 445.873 221.862C447.017 214.655 445.941 207.33 445.01 200.149C443.352 187.353 436.551 174.436 426.918 165.283C422.601 161.182 417.886 157.591 413.932 153.114C412.553 151.551 409.404 145.566 407.674 145.191C404.484 144.5 402.837 148.976 400.63 145.312C398.469 141.726 402.592 140.326 405.102 138.655C407.81 136.852 410.437 134.955 413.083 133.072C418.316 129.349 423.497 125.687 428.523 121.722C453.031 102.392 474.697 80.8417 496.646 58.8764C492.536 57.904 486.693 55.1086 482.515 55.8545C478.336 56.6008 474.622 59.5581 470.216 60.048C465.924 60.5255 461.756 59.5987 457.776 58.2494C453.084 56.6585 449.907 54.6115 445.971 58.5811C439.646 64.9591 436.166 73.8216 429.526 79.8564C422.816 85.9558 413.425 89.5177 404.688 91.3577C396.599 93.0609 385.381 92.2559 379.453 98.6237C378.119 100.057 376.929 101.076 376.853 103.217C376.719 107.025 377.583 104.297 378.806 106.655C380.801 110.494 381.58 115.283 382.03 119.526C382.94 128.113 381.791 137.519 374.911 143.438C367.5 149.812 358.333 152.496 348.533 152.31ZM348.141 138.402C353.159 140.962 363.305 137.626 367.316 134.504C372.772 130.256 373.203 122.862 372.329 116.681C369.792 117.296 367.254 117.91 364.715 118.524C363.633 118.786 362.551 119.047 361.47 119.31C361.568 120.205 361.421 121.041 361.029 121.817C358.638 124.881 357.479 123.358 354.883 120.701C349.326 115.013 344.396 108.602 342.13 101.041C339.592 104.006 336.725 105.918 332.657 105.506C330.875 105.326 324.039 103.199 325.804 100.08C326.365 99.0877 331.923 100.337 333.785 100.243C337.673 100.046 339.503 100.121 340.926 96.4641C342.111 93.4195 341.692 92.1683 338.037 91.6107C333.396 90.9015 333.263 93.6577 329.956 94.9498C321.559 98.2318 327.293 85.1629 326.094 81.4815C330.222 80.2599 334.579 79.4117 338.229 77.0836C334.184 77.5474 330.339 78.8987 326.423 79.8815C326.756 75.0617 336.319 74.036 339.895 72.522C336.031 72.0081 332.358 74.5514 328.48 74.3914C324.856 74.2419 319.774 72.7195 316.278 71.5601C312.683 70.3684 309.863 67.0471 306.394 69.9379C304.121 71.8331 301.069 76.9967 300.341 79.7445C302.603 79.418 307.933 78.9783 308.562 81.5462C309.369 84.8448 302.71 82.9249 300.659 83.4651C297.543 84.2855 298.498 85.1908 297.368 88.2692C296.255 91.3 294.257 93.7255 291.096 94.9827C294.61 96.8728 295.577 96.8389 294.869 100.336C294.173 103.774 294.632 107.637 294.972 111.464C297.063 110.608 299.316 110.332 301.56 110.107C301.997 112.883 297.635 114.058 295.388 114.22C296.568 117.873 296.611 117.759 300.647 117.747C302.907 117.741 305.174 117.611 307.429 117.502C312.02 117.279 316.475 116.46 321.003 115.732C322.731 115.454 325.179 114.51 326.899 114.699C330.052 115.046 329.44 115.387 328.918 118.073C328.212 121.716 329.008 124.473 329.923 128.427C324.525 126.587 328.86 132.216 331.407 133.375C336.423 135.656 342.563 138.098 348.141 138.402ZM52.9682 358.553C56.7886 360.458 60.3978 362.254 63.8787 364.693C67.3416 367.12 71.0357 371.201 75.4198 371.984C80.6633 372.922 81.9261 370.201 83.2237 366.183C84.682 361.663 86.0166 359.612 90.1616 357.133C97.4972 352.746 106.089 349.856 114.106 346.699C117.172 345.492 117.403 345.723 116.495 342.616C115.948 340.741 115.279 338.898 114.561 337.076C113.234 333.714 111.78 330.154 109.559 327.22C96.848 335.566 81.6871 345.24 66.0386 347.246C59.6847 348.062 53.4227 349.491 47.1905 350.033C44.105 350.302 41.5769 351.083 38.8589 352.409C35.8153 353.894 30.781 354.418 28.5892 356.859C36.8173 356.804 44.8325 357.854 52.9682 358.553ZM364.718 369.491C362.171 370.54 365.611 376.56 366.346 379.066C367.451 382.831 368.494 386.612 369.608 390.375C371.966 398.341 374.188 406.34 376.425 414.338C391.169 406.337 406.944 401.758 423.319 397.93C439.632 394.116 456.295 391.401 472.964 388.791C482.072 387.363 491.627 385.415 500.061 381.704C505.305 379.397 504.28 377.267 504.194 372.158C504.113 367.362 503.359 362.474 502.625 357.725C501.236 348.753 499.768 338.971 496.145 330.541C492.614 322.327 487.889 314.429 483.346 306.693C477.956 297.512 473.364 287.627 466.33 279.476C459 270.983 451.134 263.279 443.182 255.372C438.424 264.398 431.632 275.344 422.854 281.025C413.197 287.274 398.004 290.487 387.022 285.257C375.96 279.989 369.422 269.182 362.534 259.766C355.896 250.69 350.128 240.872 338.364 237.635C325.922 234.209 312.822 238.871 300.691 241.792C286.859 245.122 273.326 249.9 259.882 254.413C236.543 262.25 213.389 269.422 190.639 278.761C162.639 290.255 134.602 301.659 107.538 315.115C113.394 323.487 117.932 331.116 121.239 340.745C123.814 348.242 125.387 356.181 125.99 364.288C129.14 361.154 131.546 357.426 134.726 354.254C138.322 350.665 142.545 347.903 146.775 345.09C154.434 339.997 162.284 335.386 170.732 331.512C189.907 322.72 210.284 316.664 230.557 310.397C235.15 308.977 240.556 307.328 245.317 306.542C249.361 305.874 252.955 304.702 257.072 303.728C266.41 301.522 275.852 299.498 285.271 297.899C303.367 294.829 321.833 291.557 340.181 289.435C352.622 287.996 365.605 285.662 378.387 286.908C380.548 287.119 382.663 287.545 384.839 287.478C385.445 287.459 386.166 286.562 386.794 286.624C388.001 286.743 389.294 288.093 390.526 288.496C393.308 289.405 397.347 288.841 398.862 291.13C400.076 292.964 399.632 294.417 397.825 295.626C399.999 298.388 404.255 300.933 407.171 303.104C409.791 305.057 412.262 307.157 414.904 309.04C417.743 311.061 421.182 312.97 424.154 315.033C428.032 317.724 431.345 321.172 435.008 324.191C441.582 329.61 448.179 334.33 455.107 339.409C458.837 342.145 462.394 344.721 466.446 346.959C468.662 348.183 473.685 351.535 471.063 354.58C468.447 357.617 463.201 353.126 460.343 352.803C457.054 352.43 452.619 354.484 449.338 354.966C440.657 356.241 431.948 357.363 423.264 358.741C413.351 360.314 403.543 362.437 393.584 363.744C388.44 364.419 383.298 365.07 378.127 365.536C375.46 365.776 371.69 365.416 369.184 366.267C367.288 365.715 366.463 366.254 366.709 367.883C366.244 368.643 365.581 369.179 364.718 369.491ZM90.0375 142.661C95.4608 142.626 100.841 142.939 106.271 142.892C108.361 142.874 110.16 143.296 111.006 141.853C112.04 140.089 111.564 135.481 111.74 133.461C105.4 133.969 99.5813 134.127 93.2518 133.572C86.4724 132.979 79.8927 131.046 73.0876 130.627C74.5379 131.176 76.1975 134.17 75.252 135.627C74.3101 137.077 72.7724 135.768 71.2817 135.112C65.5247 132.576 60.7298 128.831 54.2633 130.469C60.217 133.539 65.8665 138.463 72.0841 140.296C77.9473 142.025 83.8616 142.614 90.0375 142.661ZM492.85 42.8324C495.49 43.3253 500.64 45.9596 503.008 44.6325C505.9 43.0114 505.292 36.4381 505.397 33.8795C505.721 26.0161 506.319 15.196 500.134 8.82197C499.012 16.3778 501.438 24.2787 501.265 31.9187C501.133 37.6516 498.968 34.5209 498.201 30.4632C497.5 26.751 497.577 23.0891 496.621 19.3959C494.867 22.3866 494.459 26.4454 493.221 29.7472C491.66 33.9111 489.452 37.6879 487.228 41.5477C489.108 41.9564 490.979 42.3879 492.85 42.8324ZM115.79 146.156C115.758 148.358 115.444 150.427 118.2 150.629C121.85 150.897 120.653 147.179 120.421 144.833C119.109 145.01 116.102 144.645 115.79 146.156ZM491.325 46.4253C489.037 46.1426 488.689 45.6255 487.238 47.2246C486.317 48.2394 486.228 50.0804 487.027 50.7196C490.494 53.4928 491.041 47.982 491.325 46.4253ZM493.464 51.5311C495.245 51.8809 496.988 52.8286 497.988 51.0633C499.456 48.4746 495.948 48.258 494.027 47.4894C493.839 48.8362 493.652 50.1837 493.464 51.5311ZM381.565 295.107C361.876 294.642 342.478 297.727 323.152 301.123C306.057 304.126 289.088 306.629 272.368 310.398C238.674 317.994 204.923 326.494 173.649 341.116C166.051 344.667 158.463 348.217 151.459 352.538C147.695 354.859 143.861 357.155 140.297 359.774C138.337 361.213 136.308 362.634 134.47 364.213C132.787 365.658 131.831 367.653 130.319 369.067C129.607 369.733 126.54 372.193 125.63 372.47C123.677 373.065 124.45 373.112 122.475 371.762C118.346 368.939 117.518 365.178 116.274 360.652C115.398 357.466 116.07 356.411 113.192 356.519C111.728 356.575 109.524 358.062 108.167 358.626C103.784 360.445 99.0478 361.895 94.8412 364.066C91.4406 365.82 88.7194 368.076 87.2628 371.551C85.5426 375.653 84.5428 379.003 79.324 379.463C70.0147 380.283 64.6657 371.003 56.7058 367.88C48.1922 364.54 37.3268 365.198 28.3378 365.09C25.064 365.051 21.499 365.366 18.3763 365.807C13.9637 366.43 8.7435 368.826 4.16386 367.303C-1.10674 365.55 -1.02744 358.063 2.46479 354.804C6.11629 351.399 11.5344 350.932 16.2047 349.801C25.646 347.516 34.2333 342.307 43.8711 340.706C53.4577 339.115 63.615 338.769 72.9606 335.868C77.7229 334.39 82.3503 333.237 86.8755 331.157C92.5133 328.565 98.5855 326.879 104.154 324.331C102.238 320.965 101.719 317.842 101.602 314.07C101.525 311.553 101.115 311.551 102.863 310.497C103.209 310.676 103.555 310.856 103.901 311.036C104.999 311.816 105.782 311.459 106.249 309.966C113.979 305.279 121.123 300.243 129.37 296.171C143.202 289.341 157.846 283.824 171.674 277.318C197.946 264.959 227.207 257.827 254.846 248.773C271.566 243.296 288.685 238.809 305.817 234.769C308.82 234.061 311.813 233.475 314.866 233.005C320.036 232.209 318.813 232.161 321.422 228.184C324.769 223.08 330.08 217.635 335.472 214.473C338.797 212.522 340.216 212.815 340.112 208.548C340.033 205.287 339.138 205.32 336.471 203.137C333.455 200.667 330.654 197.927 328.107 195.015C325.2 191.691 323.897 187.925 321.465 184.509C318.525 180.379 309.431 181.08 304.341 180.361C296.368 179.236 288.262 178.431 280.409 176.692C264.549 173.182 248.606 171.955 232.549 169.501C216.407 167.034 200.271 164.785 184.128 162.55C178.333 161.748 172.464 161.059 166.7 160.064C158.632 158.672 150.142 158.531 141.956 157.228C137.742 156.557 132.58 154.177 128.341 154.38C123.791 154.599 127.859 154.547 124.866 156.112C123.523 156.815 121.969 157.443 120.421 157.524C117.983 157.652 115.525 156.608 114.033 154.747C111.547 151.644 112.745 149.267 107.678 148.875C104.342 148.618 100.449 149.905 97.0592 150.075C93.7379 150.241 90.2844 150.722 86.9616 150.625C80.3166 150.428 72.3978 149.845 66.3636 147.004C59.969 143.995 54.2621 139.981 47.5353 137.422C44.1595 136.137 39.3571 135.592 37.094 132.486C35.2048 129.894 34.6205 124.621 37.5173 122.495C41.9606 119.234 50.5764 124.169 55.4931 122.936C58.0068 122.306 55.9315 121.547 57.8327 120.668C59.0109 120.124 58.8341 120.043 60.2316 119.845C63.6771 119.357 69.3211 121.771 72.8244 122.344C79.7371 123.474 86.5897 125.198 93.4966 126.254C97.4401 126.858 101.45 127.009 105.402 127.65C108.845 128.209 111.674 129.558 114.171 126.793C115.225 125.627 114.903 124.425 116.591 123.817C118.105 123.272 122.454 124.054 123.917 124.615C125.515 125.227 125.872 126.111 127.158 126.808C127.19 128.13 127.745 128.526 128.825 127.994C129.83 127.919 130.831 127.972 131.828 128.154C140.601 128.191 149.334 125.469 157.313 122.254C170.537 116.927 186.956 101.848 202.123 110.051C205.855 112.068 208.304 115.434 211.938 117.62C215.165 119.561 219.293 121.3 222.923 122.395C230.174 124.582 237.384 124.309 244.568 122.043C253.328 119.28 260.383 116.387 269.824 116.705C278.57 116.998 285.551 123.036 294.119 123.277C292.026 119.916 291.638 116.054 291.417 112.241C291.273 109.747 292.665 103.218 291.156 101.2C289.49 98.9697 276.48 98.068 283.736 91.5226C286.111 89.379 290.495 90.1555 292.951 87.7889C295.429 85.4002 295.478 81.6651 296.8 78.6832C298.296 75.3095 300.763 72.5227 303.291 69.8304C304.361 68.69 305.084 67.9669 305.694 66.5962C306.401 65.0064 305.93 63.6627 307.06 61.9871C310.877 56.3318 317.535 58.3006 323.33 59.0541C326.843 59.5107 331.098 59.0754 334.507 60.0338C337.247 60.8044 340.81 63.1401 343.039 64.8547C347.95 68.6314 349.091 75.6 349.47 81.3103C349.691 84.6532 349.041 87.8035 348.987 91.1347C348.931 94.6214 347.417 96.2009 344.695 98.5134C344.644 97.8701 344.329 97.4385 343.75 97.2185C342.564 98.6768 342.868 99.2461 344.662 98.927C344.73 99.799 345.042 100.582 345.596 101.279C347.078 102.926 348.356 104.746 349.8 106.425C352.96 110.097 356.646 113.284 359.078 117.451C361.627 114.485 364.872 113.999 367.913 111.953C370.871 109.963 368.661 109.37 369.759 106.494C370.199 105.341 371.354 105.138 371.761 104.246C372.145 103.399 371.677 102.866 371.914 101.936C373.098 97.3204 372.606 94.4606 376.293 90.8426C381.224 86.0033 387.3 84.7238 394.079 83.805C400.841 82.8877 405.644 82.5611 411.656 79.8892C413.742 78.9627 415.714 78.5395 417.696 77.4876C420.374 76.0654 422.867 74.5652 425.194 72.6458C430.603 68.185 433.966 61.9698 438.339 56.6097C441.84 52.3201 446.062 46.8282 452.381 47.9609C459.567 49.2498 465.9 53.6175 473.55 51.2624C476.388 50.3893 476.082 50.9258 477.208 48.1745C477.582 47.2581 477.824 46.3349 478.188 45.4341C479.552 42.0624 482.165 41.6403 483.785 38.8951C487.609 32.4146 489.704 24.3328 491.882 17.2204C492.894 13.9176 494.854 11.0529 496.049 7.88585C496.548 6.56154 496.321 0.663397 497.872 0.146077C502.875 -1.521 506.923 11.5797 507.836 14.0575C510.22 20.5326 512.32 27.8399 511.379 34.7726C510.992 37.6292 510.683 40.9387 509.919 43.7358C509.224 46.2753 509.074 46.1082 509.471 48.41C509.875 50.7506 510.355 52.1541 510.009 54.6078C509.912 55.2931 509.6 57.8248 509.305 58.1753C507.934 59.8062 507.748 58.6662 506.042 59.318C503.283 60.372 502.601 61.278 500.648 63.7505C495.764 69.9306 490.666 76.1298 485.388 81.9971C476.128 92.29 466.391 101.517 455.998 110.671C445.797 119.656 435.133 128.771 423.553 136.11C420.74 137.894 416.114 139.459 413.849 141.799C411.369 144.362 415.129 145.474 417.672 147.292C422.724 150.903 427.919 154.601 432.325 158.811C441.718 167.787 447.083 181.012 450.373 193.022C452.086 199.272 452.437 206.436 453.085 212.909C453.846 220.502 452.905 228.811 450.509 236.033C449.601 238.772 448.532 241.456 447.651 244.206C447.245 245.473 445.253 249.406 445.793 250.868C446.687 253.284 452.557 256.217 454.607 257.896C457.408 260.192 460.276 262.564 462.623 265.3C472.611 276.938 480.779 289.152 488.116 302.54C495.579 316.159 502.622 328.446 505.566 343.751C506.335 347.751 507.02 351.754 507.828 355.748C508.698 360.045 507.858 366.243 509.597 370.168C510.672 372.597 512.686 373.361 511.866 376.719C511.156 379.621 507.554 384.775 505.595 387.061C501.136 392.266 492.996 394.316 486.569 396.203C478.768 398.493 470.425 399.549 462.393 400.851C433.459 405.543 405.102 410.668 378.321 422.693C379.221 424.007 379.949 426.844 378.12 427.749C375.691 428.95 374.499 425.383 373.663 423.806C371.231 419.217 370.506 413.283 369.053 408.255C365.509 395.99 362.818 383.596 359.931 371.197C350.082 373.27 340.11 374.371 330.312 376.294C325.793 377.181 321.213 377.264 316.662 377.823C311.776 378.424 311.463 379.961 311.849 384.625C312.699 394.908 316.804 404.772 319.147 414.771C320.283 419.621 322.272 424.239 323.353 429.066C323.705 430.637 323.323 434.868 324.431 436.041C324.384 435.991 328.163 436.741 328.759 436.891C328.439 430.817 329.149 424.857 328.846 418.795C328.533 412.531 327.677 404.317 329.077 398.25C330.351 392.734 335.209 386.902 340.571 384.575C345.242 382.547 354.513 379.293 359.557 382.3C360.443 382.829 362.578 384.468 362.08 385.738C361.407 387.453 353.941 388.768 352.425 389.299C346.491 391.379 340.216 395.023 336.891 400.306C333.9 405.059 335.096 412.407 335.195 417.858C335.251 420.956 335.652 423.833 335.278 426.921C334.747 431.289 334.47 432.871 336.256 436.642C338.35 441.061 337.057 447.518 330.786 445.929C327.036 444.978 326.885 442.932 324.627 440.706C323.773 439.863 322.813 440.237 321.975 439.174C320.854 437.75 320.86 434.598 320.292 432.8C318.476 427.045 315.904 421.45 313.983 415.66C311.399 407.875 309.285 399.994 307.433 392.024C305.994 385.828 304.433 379.553 307.425 373.523C310.08 368.17 316.584 368.568 321.977 368.375C334.465 367.93 347.373 365.223 360.116 364.569C361.033 364.522 362.945 364.835 363.767 364.453C364.903 363.926 365.332 362.392 366.802 361.411C369.61 359.537 375.165 358.886 378.411 358.31C385.771 357.003 393.093 355.942 400.409 354.579C408.821 353.012 417.155 351.14 425.576 349.715C433.638 348.351 441.782 348.095 449.939 347.167C436.996 338.82 425.598 328.644 413.146 319.6C407.371 315.406 402.02 311.281 396.837 306.432C394.679 304.413 392.544 302.45 390.584 300.249C389.546 299.082 388.628 296.854 387.308 296.04C385.647 295.015 383.754 295.289 381.565 295.107Z" fill="white"/>
<path fill-rule="evenodd" clip-rule="evenodd" d="M334.058 60.0942C329.777 59.7214 324.871 59.6942 320.715 58.7416C324.386 59.0589 330.698 58.8524 334.058 60.0942Z" fill="white"/>
<path fill-rule="evenodd" clip-rule="evenodd" d="M98.7514 126.991C96.9295 126.831 95.1075 126.67 93.2867 126.51C95.1464 126.239 96.9639 126.443 98.7514 126.991Z" fill="white"/>
<path fill-rule="evenodd" clip-rule="evenodd" d="M210.928 166.634C212.146 166.739 213.363 166.843 214.572 166.949C213.352 166.845 212.141 166.739 210.928 166.634Z" fill="white"/>
<path fill-rule="evenodd" clip-rule="evenodd" d="M334.954 418.257C335.008 416.833 335.061 415.409 335.114 413.988C335.061 415.413 335.007 416.835 334.954 418.257Z" fill="white"/>
<path fill-rule="evenodd" clip-rule="evenodd" d="M328.273 429.298C328.251 430.317 328.23 431.337 328.209 432.352C328.23 431.332 328.251 430.315 328.273 429.298Z" fill="white"/>
<path fill-rule="evenodd" clip-rule="evenodd" d="M355.49 381.648C354.265 381.65 353.042 381.651 351.818 381.653C353.042 381.651 354.266 381.65 355.49 381.648Z" fill="white"/>
<path fill-rule="evenodd" clip-rule="evenodd" d="M181.337 162.16C182.147 162.262 182.955 162.365 183.758 162.468C182.947 162.365 182.142 162.262 181.337 162.16Z" fill="white"/>
<path fill-rule="evenodd" clip-rule="evenodd" d="M318.286 58.538C317.273 58.4537 316.26 58.3688 315.248 58.2846C316.261 58.3689 317.273 58.4538 318.286 58.538Z" fill="white"/>
<path fill-rule="evenodd" clip-rule="evenodd" d="M328.451 413.405C328.422 414.424 328.392 415.442 328.364 416.457C328.393 415.438 328.422 414.421 328.451 413.405Z" fill="white"/>
<path fill-rule="evenodd" clip-rule="evenodd" d="M176.477 161.766C177.288 161.848 178.099 161.93 178.903 162.01C178.089 161.928 177.283 161.847 176.477 161.766Z" fill="white"/>
<path fill-rule="evenodd" clip-rule="evenodd" d="M189.175 163.499C189.987 163.574 190.799 163.649 191.603 163.724C190.788 163.648 189.981 163.574 189.175 163.499Z" fill="white"/>
<path fill-rule="evenodd" clip-rule="evenodd" d="M321.778 368.317C320.758 368.323 319.738 368.33 318.717 368.335C319.738 368.329 320.758 368.323 321.778 368.317Z" fill="white"/>
<path fill-rule="evenodd" clip-rule="evenodd" d="M286.407 178.135C287.017 178.185 287.626 178.235 288.23 178.285C287.618 178.236 287.013 178.186 286.407 178.135Z" fill="white"/>
<path fill-rule="evenodd" clip-rule="evenodd" d="M328.851 423.842C328.781 424.653 328.71 425.464 328.64 426.271C328.711 425.46 328.781 424.651 328.851 423.842Z" fill="white"/>
<path fill-rule="evenodd" clip-rule="evenodd" d="M381.394 295.358C382.004 295.409 382.614 295.46 383.216 295.512C382.605 295.462 382 295.41 381.394 295.358Z" fill="white"/>
<path fill-rule="evenodd" clip-rule="evenodd" d="M193.415 108.049C192.394 108.057 191.374 108.065 190.353 108.073C191.374 108.065 192.394 108.057 193.415 108.049Z" fill="white"/>
<path fill-rule="evenodd" clip-rule="evenodd" d="M74.0711 122.35C73.2685 122.199 72.4664 122.049 71.6632 121.898C72.4658 122.049 73.2685 122.199 74.0711 122.35Z" fill="white"/>
<path fill-rule="evenodd" clip-rule="evenodd" d="M87.9269 124.836L85.5276 124.285L87.9269 124.836Z" fill="white"/>
<path fill-rule="evenodd" clip-rule="evenodd" d="M55.6413 123.191C54.839 123.036 54.0367 122.881 53.2344 122.726C54.0361 122.881 54.839 123.036 55.6413 123.191Z" fill="white"/>
<path fill-rule="evenodd" clip-rule="evenodd" d="M372.843 295.193C373.248 295.246 373.653 295.299 374.053 295.35C373.646 295.297 373.244 295.245 372.843 295.193Z" fill="white"/>
<path fill-rule="evenodd" clip-rule="evenodd" d="M288.908 100.6C289.312 100.662 289.717 100.725 290.115 100.787C289.71 100.724 289.309 100.662 288.908 100.6Z" fill="white"/>
<path fill-rule="evenodd" clip-rule="evenodd" d="M425.579 349.827C424.759 349.875 423.939 349.924 423.119 349.972C423.94 349.924 424.76 349.875 425.579 349.827Z" fill="white"/>
<path fill-rule="evenodd" clip-rule="evenodd" d="M452.467 227.842C452.52 227.235 452.572 226.626 452.626 226.021C452.573 226.629 452.52 227.236 452.467 227.842Z" fill="white"/>
<path fill-rule="evenodd" clip-rule="evenodd" d="M307.606 180.598C308.013 180.633 308.42 180.668 308.821 180.702C308.412 180.667 308.009 180.633 307.606 180.598Z" fill="white"/>
<path fill-rule="evenodd" clip-rule="evenodd" d="M141.969 157.552C142.377 157.579 142.783 157.606 143.185 157.634C142.777 157.607 142.373 157.579 141.969 157.552Z" fill="white"/>
<path fill-rule="evenodd" clip-rule="evenodd" d="M78.5252 141.366C80.406 141.532 82.1583 141.597 83.9616 142.171C82.1947 142.036 80.1041 142.241 78.5252 141.366Z" fill="white"/>
<path fill-rule="evenodd" clip-rule="evenodd" d="M98.0276 142.266C99.3414 141.886 101.536 142.046 102.891 142.621C101.27 142.502 99.6482 142.384 98.0276 142.266Z" fill="white"/>
<path fill-rule="evenodd" clip-rule="evenodd" d="M347.99 138.66C349.407 138.779 350.825 138.899 352.241 139.018C350.785 139.365 349.358 139.375 347.99 138.66Z" fill="white"/>
<path fill-rule="evenodd" clip-rule="evenodd" d="M491.304 46.2067C490.293 46.0785 489.281 45.9502 488.278 45.8214C489.291 45.9498 490.297 46.0782 491.304 46.2067Z" fill="white"/>
<path fill-rule="evenodd" clip-rule="evenodd" d="M49.1459 358.281C50.4214 357.684 51.6091 358.099 52.7898 358.593C51.5744 358.489 50.3607 358.385 49.1459 358.281Z" fill="white"/>
<path fill-rule="evenodd" clip-rule="evenodd" d="M125.148 142.3C125.128 143.32 125.109 144.339 125.09 145.355C125.109 144.335 125.128 143.317 125.148 142.3Z" fill="white"/>
<path fill-rule="evenodd" clip-rule="evenodd" d="M86.9964 142.467C88.0161 142.463 89.0369 142.46 90.0566 142.457C89.0364 142.46 88.0161 142.463 86.9964 142.467Z" fill="white"/>
<path fill-rule="evenodd" clip-rule="evenodd" d="M348.629 152.341C347.814 152.288 347.001 152.237 346.195 152.183C347.011 152.235 347.82 152.288 348.629 152.341Z" fill="white"/>
<path fill-rule="evenodd" clip-rule="evenodd" d="M123.219 345.888C123.218 346.908 123.216 347.928 123.214 348.947C123.215 347.926 123.217 346.907 123.219 345.888Z" fill="white"/>
<path fill-rule="evenodd" clip-rule="evenodd" d="M298.99 174.19C299.994 174.376 300.998 174.561 302.001 174.746C300.997 174.561 299.993 174.376 298.99 174.19Z" fill="white"/>
<path fill-rule="evenodd" clip-rule="evenodd" d="M91.4512 133.498C90.6368 133.454 89.8224 133.41 89.0151 133.368C89.832 133.413 90.6419 133.455 91.4512 133.498Z" fill="white"/>
<path fill-rule="evenodd" clip-rule="evenodd" d="M292.371 172.924C293.375 173.108 294.378 173.292 295.382 173.476C294.355 173.428 293.266 173.751 292.371 172.924Z" fill="white"/>
<path fill-rule="evenodd" clip-rule="evenodd" d="M101.167 134.359C100.556 134.327 99.9448 134.293 99.3403 134.26C99.953 134.293 100.56 134.326 101.167 134.359Z" fill="white"/>
<path fill-rule="evenodd" clip-rule="evenodd" d="M276.181 169.13C277.184 169.318 278.188 169.508 279.191 169.697C278.187 169.507 277.184 169.318 276.181 169.13Z" fill="white"/>
<path fill-rule="evenodd" clip-rule="evenodd" d="M493.273 51.6692C494.276 51.861 495.279 52.0528 496.282 52.2451C495.278 52.0527 494.276 51.861 493.273 51.6692Z" fill="white"/>
<path fill-rule="evenodd" clip-rule="evenodd" d="M239.393 162.987C240.404 163.087 241.416 163.187 242.427 163.286C241.415 163.186 240.404 163.087 239.393 162.987Z" fill="white"/>
<path fill-rule="evenodd" clip-rule="evenodd" d="M492.801 43.0706C493.804 43.2569 494.808 43.4427 495.812 43.629C494.808 43.4426 493.804 43.2569 492.801 43.0706Z" fill="white"/>
<path fill-rule="evenodd" clip-rule="evenodd" d="M125.173 146.721C126.187 146.79 127.201 146.858 128.214 146.926C127.162 147.461 126.152 147.336 125.173 146.721Z" fill="white"/>
<path fill-rule="evenodd" clip-rule="evenodd" d="M326.041 85.227C326.116 84.417 326.192 83.6064 326.267 82.7993C326.192 83.6112 326.116 84.4194 326.041 85.227Z" fill="white"/>
<path fill-rule="evenodd" clip-rule="evenodd" d="M325.776 88.2636C325.851 87.4532 325.926 86.6426 326.002 85.8358C325.926 86.6475 325.851 87.4556 325.776 88.2636Z" fill="white"/>
<path fill-rule="evenodd" clip-rule="evenodd" d="M329.044 236.298C328.434 236.258 327.823 236.219 327.219 236.179C327.832 236.219 328.438 236.258 329.044 236.298Z" fill="white"/>
<path fill-rule="evenodd" clip-rule="evenodd" d="M382.115 123.175C382.021 123.983 381.927 124.792 381.834 125.598C381.928 124.788 382.021 123.981 382.115 123.175Z" fill="white"/>
<path fill-rule="evenodd" clip-rule="evenodd" d="M395.174 277.744C396.195 277.732 397.216 277.721 398.236 277.71C397.215 277.721 396.194 277.732 395.174 277.744Z" fill="white"/>
<path fill-rule="evenodd" clip-rule="evenodd" d="M326.847 114.56C327.701 114.119 328.513 114.165 329.276 114.77C328.466 114.7 327.657 114.63 326.847 114.56Z" fill="white"/>
<path fill-rule="evenodd" clip-rule="evenodd" d="M333.728 105.828C333.324 105.765 332.92 105.701 332.521 105.638C332.927 105.702 333.327 105.765 333.728 105.828Z" fill="white"/>
<path fill-rule="evenodd" clip-rule="evenodd" d="M337.641 228.975C338.442 229.139 339.244 229.303 340.045 229.466C339.243 229.303 338.442 229.139 337.641 228.975Z" fill="white"/>
<path fill-rule="evenodd" clip-rule="evenodd" d="M309.965 293.525C310.782 293.506 311.6 293.488 312.418 293.469C311.6 293.487 310.783 293.506 309.965 293.525Z" fill="white"/>
<path fill-rule="evenodd" clip-rule="evenodd" d="M292.537 296.902C293.355 296.878 294.172 296.855 294.991 296.832C294.173 296.855 293.356 296.878 292.537 296.902Z" fill="white"/>
<path fill-rule="evenodd" clip-rule="evenodd" d="M285.088 298.112C285.907 298.071 286.727 298.031 287.546 297.99L285.088 298.112Z" fill="white"/>
<path fill-rule="evenodd" clip-rule="evenodd" d="M277.643 299.288L280.099 299.182C279.28 299.218 278.461 299.253 277.643 299.288Z" fill="white"/>
<path fill-rule="evenodd" clip-rule="evenodd" d="M434.699 357.498C434.087 357.47 433.474 357.441 432.871 357.413C433.485 357.442 434.092 357.47 434.699 357.498Z" fill="white"/>
<path fill-rule="evenodd" clip-rule="evenodd" d="M309.814 176.369C310.616 176.531 311.417 176.693 312.219 176.856C311.417 176.693 310.615 176.531 309.814 176.369Z" fill="white"/>
<path fill-rule="evenodd" clip-rule="evenodd" d="M460.781 59.3659C460.374 59.343 459.966 59.3202 459.564 59.2978C459.973 59.3214 460.377 59.3433 460.781 59.3659Z" fill="white"/>
<path fill-rule="evenodd" clip-rule="evenodd" d="M98.1269 134.14C97.721 134.093 97.3156 134.047 96.9152 134.001C97.3227 134.047 97.7245 134.093 98.1269 134.14Z" fill="white"/>
<path fill-rule="evenodd" clip-rule="evenodd" d="M269.606 167.34C270.408 167.505 271.21 167.67 272.01 167.835C271.209 167.67 270.408 167.505 269.606 167.34Z" fill="white"/>
<path fill-rule="evenodd" clip-rule="evenodd" d="M177.943 152.003C178.746 152.151 179.549 152.301 180.351 152.449C179.549 152.301 178.745 152.151 177.943 152.003Z" fill="white"/>
<path fill-rule="evenodd" clip-rule="evenodd" d="M115.644 146.364C115.641 146.977 115.639 147.589 115.636 148.199C115.639 147.586 115.641 146.975 115.644 146.364Z" fill="white"/>
<path fill-rule="evenodd" clip-rule="evenodd" d="M107.14 143.011C107.958 142.986 108.776 142.962 109.594 142.937C108.776 142.962 107.958 142.986 107.14 143.011Z" fill="white"/>
<path fill-rule="evenodd" clip-rule="evenodd" d="M129.443 146.855C130.285 146.511 131.112 146.364 131.874 147.049C131.063 146.984 130.253 146.92 129.443 146.855Z" fill="white"/>
<path fill-rule="evenodd" clip-rule="evenodd" d="M410.19 196.075C413.125 196.528 414.514 197.19 415.307 200.036C415.675 201.355 414.614 203.838 414.971 204.67C415.447 205.775 416.158 205.19 416.988 206.238C420.021 210.069 421.605 217.697 415.683 220.341C413.464 217.64 414.236 214.503 415.757 211.713C412.559 210.975 410.901 210.863 409.913 207.662C409.795 207.279 409.555 202.577 409.457 202.475C408.796 201.785 406.119 202.482 405.202 201.967C403.175 200.829 402.218 197.019 402.728 194.876C403.431 191.92 406.555 190.41 408.929 188.752C401.31 188.939 394.305 194.693 386.685 195.078C384.567 195.185 384.035 196.127 383.299 193.738C382.647 191.615 383.353 191.89 384.79 190.835C387.639 188.744 392.01 187.366 395.374 186.174C400.26 184.442 408.686 180.385 413.977 182.653C416.617 183.785 418.491 187.256 417.682 189.968C416.892 192.614 412.334 194.484 410.19 196.075Z" fill="white"/>
<path fill-rule="evenodd" clip-rule="evenodd" d="M413.241 156.683C415.421 160.081 416.379 163.671 414.02 167.258C417.374 166.984 421.107 166.371 423.292 169.406C426.451 173.793 423.186 175.23 419.504 175.48C416.548 175.681 410.681 177.59 408.089 175.596C403.831 172.32 408.069 166.118 409.71 162.98C407.004 163.066 400.174 163.865 401.352 158.8C402.202 155.149 410.584 156.073 413.241 156.683Z" fill="white"/>
<path fill-rule="evenodd" clip-rule="evenodd" d="M378.332 178.696L375.692 181.805C377.028 182.103 378.843 180.969 380.022 180.492C379.459 179.894 378.895 179.295 378.332 178.696ZM374.321 174.51C371.185 174.07 367.799 178.168 367.077 173.588C366.655 170.904 369.168 167.467 372.123 167.054C377.277 166.334 384.483 178.021 385.771 182.05C386.959 185.763 385.693 185.25 382.967 186.625C380.606 187.816 377.537 190.579 374.473 189.743C371.671 188.977 370.807 184.489 370.819 182.151C370.839 178.546 373.007 177.386 374.321 174.51Z" fill="white"/>
<path fill-rule="evenodd" clip-rule="evenodd" d="M390.291 174.496C390.764 175.945 394.187 182.72 391.15 182.704C389.461 182.695 386.277 172.918 385.821 171.8C385.197 170.265 383.882 168.148 384.114 166.409C384.514 163.402 384.346 164.352 386.384 164.679C390.356 165.318 393.639 171.363 397.393 172.896C395.838 167.124 393.506 160.797 395.102 154.905C399.574 159.036 399.768 167.548 400.992 173.202C401.365 174.923 402.253 178.448 400.37 179.615C398.239 180.935 391.729 175.412 390.291 174.496Z" fill="white"/>
<path fill-rule="evenodd" clip-rule="evenodd" d="M361.757 186.943C363.238 183.832 364.832 180.192 359.359 181.344C360.158 183.21 360.958 185.076 361.757 186.943ZM359.983 173.93C364.679 173.557 367.35 179.718 367.836 183.299C368.224 186.155 365.252 196.122 361.244 193.113C359.751 191.992 358.911 188.928 357.934 187.379C356.596 185.257 354.722 183.234 353.707 180.953C351.556 176.121 355.412 173.943 359.983 173.93Z" fill="white"/>
<path fill-rule="evenodd" clip-rule="evenodd" d="M360.191 174.03C359.17 174.043 358.149 174.057 357.128 174.071C358.15 174.057 359.171 174.043 360.191 174.03Z" fill="white"/>
<path fill-rule="evenodd" clip-rule="evenodd" d="M413.691 157.007C412.891 156.824 412.092 156.64 411.291 156.457C412.091 156.64 412.891 156.824 413.691 157.007Z" fill="white"/>
<path fill-rule="evenodd" clip-rule="evenodd" d="M420.126 167.385C419.316 167.312 418.507 167.239 417.698 167.165C418.554 166.724 419.362 166.804 420.126 167.385Z" fill="white"/>
<path fill-rule="evenodd" clip-rule="evenodd" d="M307.781 87.9129C311.736 90.7519 302.982 101.384 299.513 92.7638C298.545 90.3579 298.847 87.3701 301.401 87.9939C302.55 88.2746 302.708 90.0081 304.304 90.0729C305.887 90.1378 306.664 88.7776 307.781 87.9129Z" fill="white"/>
<path fill-rule="evenodd" clip-rule="evenodd" d="M330.756 97.8773C330.819 95.7509 334.902 91.5284 337.229 94.3195C339.565 97.1196 332.523 97.8112 330.756 97.8773Z" fill="white"/>
</svg>
