<svg width="560" height="527" viewBox="0 0 560 527" fill="none" xmlns="http://www.w3.org/2000/svg">
<path fill-rule="evenodd" clip-rule="evenodd" d="M290.346 32.4824C287.879 39.0103 285.414 45.539 282.948 52.0668C281.367 56.2501 279.787 60.4325 278.207 64.6157C277.646 66.0989 277.334 67.6203 276.25 68.6499C273.695 71.0743 269.11 72.6172 266.039 74.3227C263.982 75.4655 261.924 76.6083 259.867 77.7512C258.806 78.3409 256.455 79.0813 255.711 80.06C254.893 81.1382 255.28 83.1187 255.28 84.6098V97.4838V121.742C265.906 120.413 276.532 119.085 287.158 117.757C273.001 134.092 258.845 150.427 244.688 166.762C241.199 170.787 236.963 174.662 234.363 179.346C228.831 189.316 223.422 199.357 217.954 209.362C212.863 218.675 207.772 227.988 202.681 237.3L248.481 235.351C260.339 234.847 272.521 235.605 283.946 232.245C293.364 229.474 302.782 226.705 312.2 223.935C313.453 223.566 317.355 223.149 318.243 222.141C319.074 221.196 319.056 217.628 319.292 216.42C323.737 193.571 329.396 168.392 342.371 148.724C351.673 134.625 364.225 122.281 375.72 109.987C380.207 105.188 384.772 100.447 389.099 95.5026C390.208 94.2362 391.809 92.7993 392.542 91.2612C393.016 90.2674 393.677 88.3738 393.383 87.4916C393.256 87.109 390.298 85.7367 389.874 85.4641C386.877 83.5379 383.906 81.571 380.928 79.6137C372.562 74.1131 364.203 68.5989 355.789 63.1716C349.229 58.9398 342.688 54.4529 335.769 50.8164C328.597 47.0468 320.698 44.3937 313.179 41.4155C305.581 38.4054 297.968 35.4296 290.346 32.4824Z" fill="#221EC4"/>
<path fill-rule="evenodd" clip-rule="evenodd" d="M548.235 381.218C544.586 384.656 537.942 389.271 532.69 387.172C530.052 386.119 527.799 383.805 525.396 382.313C522.574 380.56 519.92 378.806 517.526 376.469C512.752 371.805 509.137 364.992 503.498 361.341C501.602 360.114 497.903 359.851 496.588 357.891C495.999 357.012 495.944 355.679 496.052 354.663C496.288 352.474 497.47 352.603 495.495 350.997H498.563C498.622 349.812 497.439 349.714 496.558 349.867C496.967 347.988 497.385 340.638 493.961 343.969C490.993 346.857 492.478 351.647 490.377 354.774C488.767 357.169 484.497 355.23 483.921 352.595C483.662 351.412 484.966 349.564 485.121 348.403C485.462 345.83 484.313 343.605 482.644 341.656C478.983 344.096 481.059 349.145 478.972 352.35C477.084 355.25 472.879 353.897 470.005 353.387C466.559 352.775 462.662 353.394 459.365 352.58C454.387 351.351 456.246 345.506 455.754 341.734C455.225 337.692 451.141 332.083 452.368 328.006C453.686 323.628 461.392 322.682 465.076 321.62C473.494 319.192 485.502 318.725 491.76 311.927C496.738 317.478 500.742 323.835 505.963 329.179C511.602 334.952 517.625 340.281 523.039 346.286C528.674 352.536 534.49 358.665 539.919 365.096C542.289 367.901 544.369 370.924 546.819 373.662C548.998 376.096 551.295 378.336 548.235 381.218ZM298.02 273.252C300.607 271.876 300.936 272.739 300.935 275.572C300.191 274.211 299.452 273.847 298.02 273.252ZM276.088 328.326V323.333C278.581 323.267 277.048 327.539 276.088 328.326ZM275.478 335.764C275.478 333.552 275.418 331.447 276.056 329.296C276.39 331.639 277.029 333.668 275.478 335.764ZM286.2 487.681C288.491 487.896 292.02 486.318 293.947 488.115C295.925 489.961 295.767 495.336 296.235 497.831C297.01 501.953 297.696 506.089 298.349 510.232C298.777 512.948 299.306 515.706 296.235 516.745C291.697 518.28 285.213 516.09 280.484 515.89C271.14 515.497 261.8 514.951 252.449 514.761C243.385 514.578 234.301 514.723 225.278 515.666C221.203 516.091 217.217 516.844 213.183 517.524C211.057 517.884 205.359 519.386 203.438 517.593C199.825 514.219 205.833 506.341 208.416 504.116C213.212 499.987 220.031 497.01 226.044 495.216C229.257 494.258 234.615 491.566 237.146 494.577C239.088 496.885 239.011 499.967 241.794 501.716C248.242 505.77 244.469 494.143 240.44 492.712C243.145 486.379 248.302 495.32 250.441 497.468C251.202 498.232 253.678 500.752 254.753 499.485C255.558 498.537 253.95 495.138 253.652 494.214C253.2 492.81 252.054 490.674 252.384 489.151C252.98 486.395 256.845 485.644 259.16 485.415C262.75 485.059 266.272 486.197 269.822 486.577C275.265 487.161 280.751 487.17 286.2 487.681ZM250.152 228.104C243.065 228.668 235.933 227.584 228.862 228.471C222.173 229.311 215.869 231.767 209.562 234.023C218.938 212.034 231.067 192.017 245.852 173.266C253.214 163.926 261.133 154.651 269.088 145.812C272.79 141.7 276.618 137.724 280.44 133.727C283.85 130.161 286.293 124.106 290.384 121.444C293.876 119.171 299.979 120.792 303.849 120.933C308.224 121.092 313.548 121.49 317.814 120.034C320.905 118.979 321.756 116.163 317.885 116.07C313.321 115.959 308.832 116.435 304.208 116.007C292.227 114.9 280.679 113.08 268.601 114.112C265.834 114.348 262.192 115.527 259.477 115.173C257.524 114.917 258.808 115.899 257.451 114.332C256.931 113.733 256.305 112.324 256.151 111.528C255.286 107.056 257.742 100.666 258.329 96.1641C258.872 91.9976 258.391 87.4183 259.408 83.361C260.334 79.6687 263.157 79.1762 266.633 78.7817C276.143 77.7018 285.849 77.1272 295.402 76.3135C317.203 74.4566 339.697 71.6553 361.351 76.2442C369.17 77.901 378.704 80.4633 385.688 84.566C387.873 85.8483 390.076 87.3585 389.282 90.0156C388.458 92.7738 384.417 95.6875 382.416 97.5046C367.625 110.932 353.34 124.627 342.95 141.856C329.7 163.826 322.096 187.554 317.634 212.729C316.675 218.145 315.784 220.98 310.212 222.538C304.23 224.213 298.456 225.301 292.253 225.81C278.231 226.961 264.167 226.985 250.152 228.104ZM254.901 82.6111C253.827 90.6085 252.372 98.5884 252.229 106.649C252.175 109.693 251.886 111.219 248.649 111.898C244.832 112.698 240.952 113.294 237.118 114.124C218.613 118.135 200.459 123.06 182.355 128.603C164.761 133.992 147.455 140.055 129.466 144.047C121.727 145.764 112.672 146.922 105.624 150.724C98.0417 154.815 99.0395 161.523 98.3589 168.891C97.4495 178.735 94.5303 188.267 93.5038 198.107C93.0129 202.809 92.5658 207.539 92.6399 212.27C92.7029 216.304 93.2807 220.764 90.5694 224.158C85.1302 216.886 82.552 207.74 81.4801 198.828C80.9589 194.496 81.1653 190.129 81.0163 185.776C80.896 182.272 80.9741 176.698 78.6916 173.772C73.7297 167.412 67.2768 192.899 66.6631 195.62C65.631 200.201 64.7799 204.82 63.7518 209.402C63.296 211.433 62.711 218.815 59.9902 219.551C54.3517 221.076 55.5894 205.232 55.5001 202.819C55.3216 197.95 55.2005 193.075 55.3144 188.201C55.3973 184.684 56.0779 180.866 55.6739 177.347C54.6816 168.706 49.8226 177.81 48.4566 181.026C45.005 189.147 43.4437 197.838 40.3484 206.088C39.8335 207.461 38.6238 212.081 36.7071 212.167C34.5744 212.262 34.5911 207.49 34.4692 206.096C33.7615 198.016 31.3714 189.992 32.0927 181.828C32.8211 173.585 35.7109 165.11 39.8001 157.939C48.4454 142.78 64.0578 134.075 79.0119 126.146C96.1258 117.074 114.194 109.906 132.647 104.067C154.841 97.0439 177.629 91.3616 200.554 87.3179C212.218 85.2609 224.061 83.7898 235.844 82.6103C239.985 82.1958 244.128 81.9536 248.215 81.1654C249.758 80.8673 255.325 79.4511 254.901 82.6111ZM266.823 56.7299C260.976 56.7761 255.002 53.9413 249.306 52.7698C242.524 51.3735 235.9 49.3532 229.13 47.8956C215.873 45.0417 202.608 42.2587 189.363 39.3419C183.613 38.0755 177.835 36.9733 172.107 35.6129C165.979 34.1577 159.359 32.5351 153.087 34.1027C143.58 36.4792 139.564 46.8803 136.073 54.9973C133.607 60.7306 131.676 67.1214 127.83 72.1104C126.461 73.8892 124.515 76.0107 122.032 75.4345C117.42 74.3649 118.153 68.2618 118.74 64.8883C119.591 59.9926 120.797 55.1543 121.762 50.2809C122.151 48.314 125.165 35.4408 119.784 37.4339C115.792 38.9123 113.68 48.6495 112.169 52.1274C111.046 54.712 109.857 57.2798 108.597 59.8006C106.915 63.1629 102.117 74.3976 96.8056 72.9487C89.2042 70.8751 96.4956 50.8914 97.7906 46.6794C98.5015 44.3675 106.228 26.8336 99.7065 28.2666C96.9291 28.8778 94.2235 34.0365 92.8073 36.1748C90.2961 39.9675 87.7928 43.7873 85.429 47.6733C82.9975 51.67 81.7559 56.219 79.3443 60.1576C78.0755 62.2305 75.4862 64.9927 72.9583 63.0737C69.0173 60.0843 71.3532 49.6856 72.0434 45.7534C73.3273 38.4429 76.5167 30.9483 80.8928 24.9719C87.4685 15.9918 99.8763 13.0901 110.31 11.3456C123.778 9.09336 137.433 9.70941 150.957 11.0419C166.167 12.541 181.145 14.1461 196.138 17.2112C211.247 20.3002 226.365 23.3645 241.241 27.4497C248.25 29.3743 255.359 31.0806 262.267 33.34C269.612 35.7412 276.78 38.7298 284.33 40.46C281.674 47.0867 279.018 53.7134 276.362 60.3409C273.821 57.8265 270.352 56.7012 266.823 56.7299ZM396.984 74.9906C399.313 73.717 401.886 73.1161 402.735 70.3013C403.487 67.8139 402.203 64.9959 401.589 62.6082C399.872 55.9234 399.421 48.9986 400.94 42.2348C402.392 44.4512 407.827 52.9762 411.133 47.8151C413.127 44.7022 407.784 40.2241 406.224 38.0357C409.646 35.9237 414.534 30.2558 418.477 33.6739C421.026 35.8839 422.105 38.0117 425.539 39.086C429.708 40.3907 433.633 40.0918 437.891 39.7316C440.871 39.4797 441.589 39.0821 442.754 41.3773C443.668 43.1816 444.14 45.4147 444.674 47.3521C445.726 51.1719 448.163 58.6984 445.278 62.2767C442.75 65.4111 432.943 62.7238 431.581 66.7699C430.838 68.9767 434.383 69.0556 435.738 70.1474C437.416 71.4991 438.803 73.6501 439.715 75.5715C440.39 76.9925 441.416 79.3403 440.267 80.7932C438.679 82.8031 435.737 81.2785 434.457 79.8177C432.758 77.8771 432.207 75.2241 430.789 73.1105C428.187 69.2325 428.031 72.3176 427.323 75.1021C426.587 77.9951 424.847 77.7958 422.181 78.1672C417.504 78.8199 412.777 79.7404 408.224 80.994C405.89 81.6364 403.629 82.4549 401.406 83.4112C399.974 84.0265 397.491 85.8905 395.937 85.9082C393.058 85.9407 391.061 81.1247 389.575 79.1156C392.043 77.7377 394.504 76.347 396.984 74.9906ZM551.617 369.883C544.425 361.25 538.197 351.872 531.102 343.163C524.104 334.575 516.007 327.065 508.153 319.286C504.447 315.614 500.896 311.586 496.804 308.333C493.752 305.906 491.403 305.868 487.731 306.943C477.299 309.999 466.677 313.677 456.804 318.236C447.611 322.482 439.237 327.934 429.267 330.302C419.091 332.719 408.51 333.496 398.08 332.896C387.382 332.282 377.291 330.056 367.118 326.784C357.482 323.686 347.436 320.98 339.195 314.839C330.556 308.401 323.882 299.141 317.697 290.432C314.566 286.023 311.458 281.393 309.349 276.396C307.518 272.06 306.322 266.942 303.037 263.407C302.231 264.549 301.228 265.529 300.819 266.87C300.632 267.48 301.73 267.46 301.618 267.945C301.405 268.858 300.191 269.788 299.485 270.285C296.948 272.07 296.933 270.649 297.598 273.988C297.986 275.934 297.252 280.324 294.079 278.89C295.247 280.288 293.391 282.054 292.785 283.206C292.368 282.727 291.849 282.56 291.229 282.705C292.389 285.016 291.704 285.077 290.579 286.913C290.374 287.248 289.646 289.004 289.751 288.856C288.601 290.493 287.274 290.905 286.603 292.943C286.053 294.618 286.194 296.459 285.58 298.131C284.838 297.105 284.096 296.079 283.354 295.054C283.506 295.861 283.808 297.055 284.161 297.786C284.382 298.244 285.332 299.312 285.319 299.561C285.268 300.494 284.104 300.27 283.773 301.074C283.15 302.582 284.05 302.805 283.71 304.277C283.321 305.966 282.277 305.29 281.781 306.731C281.687 307.004 282.42 308.08 282.304 308.67C282.14 309.503 281.385 309.969 281.118 310.711C280.439 312.596 280.686 313.976 279.743 315.785C279.378 316.486 278.847 316.953 278.589 317.75C278.364 318.451 278.849 319.944 278.414 320.572C276.311 323.6 276.607 318.384 276.767 317.091C278.105 306.231 282.398 295.022 286.327 284.872C288.279 279.828 290.18 274.628 292.628 269.797C293.613 267.852 294.75 265.844 296.378 264.356C298.437 262.474 301.359 261.721 303.224 259.618C302.93 259.95 305.246 257.758 304.875 258.479C305.207 257.835 304.628 256.963 304.834 256.34C305.09 255.566 305.573 255.403 306.112 254.726C307.08 253.51 308.23 252.904 306.71 251.355C308.967 250.856 310.046 250.123 310.497 247.706C310.826 245.938 310.161 246.053 311.322 244.875C312.486 243.69 313.076 244.615 313.81 242.564C314.687 240.11 315.27 236.774 315.796 234.206C316.255 231.964 315.141 228.667 317.03 227.084C319.424 225.08 321.565 225.929 321.136 221.898C320.718 217.968 321.939 215.587 323.166 211.869C325.615 204.445 326.562 196.607 328.709 189.095C333.292 173.063 341.389 158.609 350.095 144.497C358.139 131.457 369.386 120.348 380.246 109.649C383.219 106.718 386.16 103.746 388.83 100.533C391.13 97.7668 392.18 94.0004 394.391 91.3744C395.734 89.7797 398.234 89.0975 400.109 88.2519C403.236 86.8413 406.963 85.0011 410.493 85.2864C409.09 90.0148 408.633 95.5401 412.772 99.0858C417.794 103.387 422.345 98.9184 426.948 96.4662C435.339 91.996 447.338 96.0996 454.655 89.3995C456.397 87.804 456.884 85.2546 458.694 83.7643C460.024 82.6716 461.915 82.3943 463.411 81.5798C467.958 79.1052 470.165 74.5753 468.395 69.5712C466.777 64.9967 464.263 63.41 469.859 61.0916C474.402 59.2108 476.129 56.3768 474.072 51.3313C472.112 46.5209 468.521 45.967 465.123 42.819C461.831 39.7698 465.612 36.221 468.078 33.9321C471.258 30.9794 471.866 28.3184 468.179 25.2477C464.318 22.0328 458.807 22.1451 454.307 23.7351C449.218 25.5322 445.865 28.52 443.711 33.3615C441.518 38.2907 436.082 36.9151 431.68 35.5412C427.47 34.2278 426.374 31.3938 423.609 28.3423C420.534 24.948 414.268 27.8505 410.642 29.4014C401.709 33.2188 392.833 39.2438 392.478 49.9159C392.267 56.2796 394.958 61.6885 396.358 67.6617C397.638 73.1241 388.862 72.6937 387.343 77.9775C371.132 69.3959 353.078 66.7699 334.957 66.1858C315.697 65.5641 296.16 65.066 277.064 68.104C281.496 60.3815 283.837 51.9131 287.694 43.9794C288.804 41.6953 289.282 41.8905 291.732 42.5807C296.438 43.906 301.109 45.3892 305.805 46.7544C322.962 51.7417 339.782 57.7508 356.371 64.332C357.984 64.972 361.583 66.7484 362.996 64.8166C364.627 62.5891 360.855 59.8428 359.328 58.7223C352.648 53.8218 344.37 50.8475 336.889 47.4095C320.533 39.895 302.421 36.3278 285.355 30.7467C248.513 18.6959 210.398 9.54364 172.11 3.49872C162.767 2.02355 153.323 1.80758 143.939 0.712559C135.627 -0.257338 127.3 -0.235023 118.988 0.766752C103.637 2.61808 85.8403 6.61243 77.1702 20.6644C69.3433 33.3519 64.1184 47.6167 66.1156 62.6664C66.7157 67.1868 68.63 72.5399 74.2079 71.3748C78.0771 70.5666 80.1317 67.2792 81.928 64.0706C84.6424 59.2236 87.3234 54.3765 90.265 49.6593C91.356 56.7323 87.3912 63.6873 88.0144 70.8926C88.4384 75.7819 91.14 83.5068 97.4878 82.1225C106.188 80.2258 109.769 66.6337 113.952 60.113C114.164 65.1354 112.404 70.0853 112.942 75.1189C113.474 80.0911 117.359 84.7852 122.816 84.1038C127.963 83.4614 131.307 77.9473 133.494 73.7959C136.536 68.0188 138.721 61.8248 141.692 56.0094C144.476 50.5582 147.775 44.0686 154.423 43.0445C160.357 42.1296 167.156 44.2471 173.017 45.1206C189.274 47.5434 205.204 51.6684 221.283 55.0013C238.524 58.574 256.172 60.7441 272.881 66.5093C267.005 74.506 251.63 72.7782 242.878 73.6365C229.652 74.934 216.256 75.9102 203.105 77.8245C190.116 79.7149 177.399 83.0709 164.511 85.5072C151.691 87.9307 138.894 90.3583 126.489 94.4913C103.458 102.165 80.0424 111.877 59.7503 125.267C50.3087 131.497 41.9216 138.618 36.0894 148.452C30.2198 158.348 27.3994 169.538 26.3235 180.921C25.6541 188.009 26.7913 194.144 28.1645 201.042C29.1591 206.037 29.4811 214.399 33.4858 218.056C41.1294 225.037 47.4756 196.723 48.887 193.303C49.9031 198.907 48.2414 230.479 60.5058 227.911C65.9793 226.766 67.221 219.253 68.1287 214.728C69.7848 206.479 71.2679 198.064 74.1003 190.119C75.9182 200.824 76.6761 211.976 80.5923 222.2C83.1936 228.991 90.6156 241.039 95.7903 229.415C99.6715 220.697 98.3397 210.691 98.8052 201.435C99.3208 191.178 102.266 181.285 103.308 171.128C103.712 167.194 103.346 162.759 107.3 160.612C110.694 158.77 115.658 158.17 119.363 157.141C130.34 154.093 141.388 151.292 152.313 148.059C163.242 144.823 174.02 141.043 184.804 137.354C195.117 133.826 205.648 131.82 216.086 128.799C222.021 127.08 227.884 125.283 233.902 123.849C236.703 123.182 239.537 122.662 242.332 121.971C244.403 121.46 247.132 119.528 249.261 119.563C251.453 119.599 252.277 121.454 254.79 121.6C257.495 121.756 260.246 121.159 262.937 120.953C269.492 120.45 276.46 119.637 283 120.545C279.069 125.208 273.76 128.431 269.108 132.293C263.742 136.747 258.549 141.556 253.966 146.816C244.743 157.4 236.027 168.587 227.929 180.053C219.941 191.364 213.51 203.741 207.918 216.387C205.132 222.689 202.427 229.128 200.502 235.752C199.712 238.473 199.066 241.204 197.639 243.678C196.33 245.948 194.485 247.905 196.032 250.645C197.098 249.978 198.055 249.15 199.019 248.349C197.905 256.191 195.502 263.779 194.267 271.597C193.049 279.301 193.099 287.223 193.178 295.003C193.343 311.296 194.555 327.22 197.86 343.202C201.202 359.362 205.496 375.399 210.911 390.988C216.123 405.998 221.353 421.739 228.629 435.885C236.399 450.996 245.643 466.882 256.89 479.673C249.543 482.682 240.193 482.119 232.413 483.331C224.281 484.599 217.247 486.99 210.316 491.49C203.305 496.044 199.498 501.906 198.529 510.209C197.841 516.118 195.795 524.3 203.548 525.852C209.124 526.969 215.358 525.135 220.945 524.682C230.719 523.889 240.507 523.394 250.303 522.967C260.073 522.541 269.845 522.166 279.618 521.863C284.215 521.72 288.814 521.648 293.409 521.483C295.469 521.41 296.718 521.378 298.564 521.973C300.024 522.444 299.917 523.422 301.543 522.213C304.165 520.263 303.626 514.115 303.552 511.411C303.441 507.239 303.045 503.019 302.232 498.926C301.749 496.494 295.886 480.815 300.445 480.156C295.149 474.336 293.034 466.026 290.655 458.733C287.674 449.595 285.058 440.482 283.004 431.084C278.617 411.008 276.678 390.712 276.678 370.171C297.015 382.706 318.532 389.496 342.485 390.253C366.3 391.006 392.463 389.051 415.077 381.128C425.549 377.459 434.929 372.64 443.908 366.149C447.126 363.823 450.573 358.553 454.797 358.644C459.838 358.752 465.483 360.66 470.488 361.476C480.061 363.036 492.556 363.917 500.661 369.838C505.064 373.055 508.219 377.557 512.148 381.263C515.136 384.082 519.088 385.613 522.055 388.433C525.255 391.475 523.984 395.449 529.291 395.696C533.827 395.905 538.801 394.08 542.713 391.938C550.519 387.664 558.831 378.541 551.617 369.883Z" fill="white"/>
<path fill-rule="evenodd" clip-rule="evenodd" d="M424.768 52.0624C427.458 53.9034 432.82 53.8396 435.299 51.5563C437.821 49.2332 434.454 48.8762 432.4 48.9471C430.819 49.0021 427.861 49.7855 428.761 47.0559C429.561 44.634 433.954 45.8669 434.321 43.2082C431.014 42.6153 427.372 42.8289 424.926 45.4278C423.158 47.3062 422.25 50.3386 424.768 52.0624Z" fill="white"/>
<path fill-rule="evenodd" clip-rule="evenodd" d="M142.424 364.464C142.87 363.416 143.315 362.368 143.761 361.321C144.313 363.148 144.467 364.056 142.424 364.464ZM143.018 369.305C142.051 369.478 142.432 366.445 142.432 365.917C144.102 366.862 142.719 367.995 143.018 369.305ZM141.511 360.557C142.335 360.07 143.159 359.584 143.983 359.097C142.835 361.223 143.286 359.894 143.759 361.315C142.893 361.563 142.052 361.273 141.511 360.557ZM136.627 377.175C133.538 388.382 123.727 397.221 113.364 401.8C107.409 404.43 101.555 405.088 95.1239 404.795C92.6437 404.682 89.7253 403.876 87.3384 404.026C85.5006 404.141 85.5835 404.221 84.0613 405.777C83.3879 404.537 83.8756 403.666 82.5248 402.944C80.8392 402.044 80.1395 403.093 79.3035 404.34C78.2092 403.206 77.7613 402.614 76.3436 401.94C76.3882 401.962 74.9863 401.908 75.0437 401.926C74.7903 401.848 73.2657 400.868 72.7883 400.689C70.8294 399.954 68.5645 399.652 66.757 398.598C65.1758 397.677 63.8736 395.093 62.0645 397.079C62.0629 393.76 57.5928 392.384 55.4976 390.646C52.2237 387.93 49.6208 383.908 47.9886 380.018C46.2481 375.87 45.6671 371.893 44.8526 367.619C44.2836 364.632 40.557 360.314 42.7949 357.3C43.328 358.563 43.0778 359.858 43.9632 361.004C44.7602 359.468 45.1985 357.75 45.5587 356.069C45.7356 355.246 46.7605 352.829 46.6442 352.112C46.4075 350.644 44.5904 350.564 45.5978 348.765C47.6874 351.039 49.3737 347.046 47.795 345.454C47.0155 346.333 46.7294 347.332 46.37 348.421C44.3155 344.273 50.0017 345.609 48.7577 341.865C50.833 341.466 52.026 340.943 52.815 338.892C53.6924 336.61 53.0469 336.113 55.0393 334.605C55.7247 334.087 57.6629 333.342 58.0175 332.489C58.7037 330.842 56.9576 330.354 58.4869 328.81C59.0034 329.716 61.0165 331.51 62.1187 329.803C62.3394 329.463 61.4126 329.221 62.0868 328.437C63.0854 327.277 64.2027 326.138 65.8915 326.382C64.5542 323.039 73.0992 322.775 75.2876 321.986C77.4808 321.196 79.3417 320.677 81.6672 320.494C83.9904 320.31 84.1059 319.63 86.0728 318.231C86.2394 320.232 86.7207 319.792 88.1433 320.145C88.4852 319.559 88.8359 319.493 89.1945 319.948C89.5515 320.287 89.9883 320.447 90.5031 320.427C91.2841 320.468 92.1703 320.366 92.9888 320.383C94.9103 320.42 96.8923 320.26 98.7771 320.301C99.2633 320.219 99.7175 320.051 100.143 319.793C100.321 320.128 100.499 320.463 100.676 320.799C101.675 320.924 101.752 322.175 102.98 320.807C103.344 322.547 104.388 321.641 105.491 322.113C106.496 322.544 106.657 323.233 107.585 323.713C108.196 324.208 108.85 324.274 109.55 323.911C110.215 324.404 110.891 324.883 111.576 325.348C112.839 326.061 114.328 326.498 115.659 327.061C116.544 327.426 117.424 327.807 118.297 328.2C118.323 329.254 118.796 329.626 119.714 329.316C120.544 330.01 120.777 329.983 121.582 331.165C123.405 333.843 125.023 335.924 127.326 338.318C137.337 348.727 140.413 363.442 136.627 377.175ZM139.699 332.917C135.18 326.865 128.783 319.934 123.034 316.112C120.12 314.174 116.03 310.695 112.467 309.67C111.622 309.427 110.748 309.411 109.918 309.156C109.276 308.959 108.927 308.301 108.196 308.182C107.684 308.099 107.627 309.245 107.084 309.139C105.947 308.918 105.227 307.79 104.424 307.085C102.701 310.055 101.765 305.06 99.2338 308.418C96.2213 303.695 89.1443 304.727 84.3339 304.966C82.9073 305.036 82.2371 305.544 80.9723 305.92C79.7952 306.27 79.6788 306.179 78.3933 306.17C75.192 306.145 72.35 306.548 69.3909 307.954C64.4195 310.315 59.8561 313.994 55.1341 316.84C49.8567 320.021 45.0997 324.07 41.0623 328.721C26.4668 345.542 22.5641 370.094 34.2021 389.594C52.6875 420.564 100.37 423.874 127.389 402.86C148.264 386.624 156.208 355.019 139.699 332.917Z" fill="white"/>
<path fill-rule="evenodd" clip-rule="evenodd" d="M179.086 418.128C174.821 416.601 167.687 416.931 166.632 422.439C166.19 424.744 167.05 427.183 168.642 428.858C170.489 430.8 173.43 430.98 173.273 427.598C173.163 425.258 170.936 423.225 174.852 422.753C177.289 422.459 180.894 424.282 181.015 426.974C181.289 433.042 170.785 433.518 166.914 432.468C159.232 430.387 161.319 422.34 166.595 418.668C167.958 417.718 171.868 416.257 172.047 414.286C172.284 411.672 169.052 412.206 167.468 412.55C155.822 415.085 153.283 434.595 165.452 438.273C170.978 439.942 178.76 438.218 182.091 433.214C185.213 428.521 185.256 420.337 179.086 418.128Z" fill="white"/>
<path fill-rule="evenodd" clip-rule="evenodd" d="M24.6715 280.019C21.031 281.771 17.3905 283.524 13.7508 285.276C12.5474 282.701 10.5143 275.667 7.46199 274.768C2.52086 273.314 5.66725 280.982 6.51999 282.736C7.22052 284.176 8.84551 286.407 8.45102 288.124C7.92184 290.437 4.6591 291.256 2.95122 292.449C-1.27505 295.402 -1.24157 301.605 4.87906 298.977C8.34263 297.489 12.6311 293.363 15.2857 298.047C16.5114 300.209 19.4156 312.284 22.4488 304.387C24.3256 299.498 15.2921 294.418 19.7455 290.282C21.1792 288.951 22.8576 288.839 24.2897 288.074C27.7485 286.225 25.7984 282.81 24.6715 280.019Z" fill="white"/>
<path fill-rule="evenodd" clip-rule="evenodd" d="M476.595 166.589C488.018 174.703 501.12 180.245 513.057 187.553C516.044 189.382 525.353 193.179 525.263 196.572C525.21 198.556 522.413 201.043 521.188 202.418C519.09 204.773 517.116 207.152 515.179 209.644C506.315 221.052 497.968 232.568 488.361 243.404C486.915 245.033 482.558 252.816 481.151 248.95C480.514 247.198 481.039 245.229 479.377 243.595C478.522 242.753 475.217 242.289 476.18 240.484C476.821 240.773 477.464 241.062 478.106 241.35C477.607 239.907 477.644 238.327 476.896 236.963C476.432 236.116 475.524 235.715 475.209 234.761C474.774 233.443 475.512 231.911 475.388 230.553C475.267 229.198 474.564 227.917 474.145 226.639C471.66 219.061 470.768 211.422 469.495 203.604C468.236 195.868 466.274 188.374 465.505 180.552C464.691 172.29 463.694 164.045 462.364 155.849C464.738 156.182 466.563 158.762 468.242 160.22C470.882 162.512 473.748 164.566 476.595 166.589ZM467.64 246.577C467.095 246.149 466.669 245.623 466.361 245C471.96 242.226 468.582 246.958 467.64 246.577ZM464.236 240.662C461.796 241.335 460.042 241.471 458.161 240.467C457.982 240.372 458.188 239.638 457.866 239.487C457.584 239.357 457.155 239.518 456.914 239.396C456.095 238.979 454.66 239.892 454.521 238.297C457.635 237.343 460.698 235.585 463.986 235.288C468.556 234.877 468.345 239.529 464.236 240.662ZM453.544 231.465C450.214 232.244 447.471 234.062 443.933 233.587C440.612 233.143 437.727 231.421 435.107 229.436C441.66 227.581 448.533 227.246 455.08 225.451C457.212 224.867 460.014 223.327 462.311 223.947C464.864 224.638 465.025 227.028 465.79 229.204C461.705 229.939 457.588 230.52 453.544 231.465ZM432.719 222.233C429.52 222.997 426.25 224.669 423.575 221.784C423.143 221.319 422.765 221.784 422.816 220.35C422.87 218.838 424.242 217.864 425.422 217.332C428.197 216.081 432.087 216.89 435.035 216.705C439.736 216.413 444.521 215.436 449.171 214.684C452.391 214.163 455.716 213.008 459.007 213.236C461.548 213.412 464.613 215.577 460.91 217.157C457.538 218.596 452.482 218.375 448.829 218.998C443.429 219.92 438.048 220.96 432.719 222.233ZM429.594 207.183C429.801 207.395 430.008 207.606 430.215 207.817C430.181 207.809 431.442 206.788 431.776 206.759C433.398 206.618 435.029 206.729 436.653 206.638C440.396 206.426 444.168 205.774 447.843 205.056C450.837 204.471 453.887 203.463 456.969 203.716C459.637 203.934 459.918 204.481 460.092 207.056C453.282 207.056 446.266 206.912 439.572 208.354C435.215 209.292 430.412 212.086 428.229 207.05C428.684 207.094 429.139 207.139 429.594 207.183ZM433.852 196.282C435.541 197.568 440.145 195.429 442.169 195.216C444.367 194.983 446.435 194.741 448.565 194.194C450.454 193.708 456.703 191.28 458.152 193.602C460.373 197.159 451.379 197.811 449.954 197.987C443.974 198.726 437.77 199.381 431.951 200.95C432.585 199.394 433.218 197.838 433.852 196.282ZM442.054 184.201C442.491 185.845 456.014 179.786 456.26 184.19C456.45 187.568 442.881 189.251 440.441 188.955C441.013 187.399 442.532 186.006 442.054 184.201ZM446.594 173.867C446.882 170.551 447.327 170.57 449.986 170.257C452.014 170.019 454.802 168.83 454.275 172.445C453.823 175.54 446.305 177.213 446.594 173.867ZM451.428 162.457C452.068 160.676 453.508 163.073 453.538 163.978C453.619 166.387 451.792 165.866 450.034 165.866C450.523 164.741 450.989 163.603 451.428 162.457ZM473.685 149.092C473.326 148.66 471.313 148.496 470.74 148.286C469.331 147.769 469.531 146.669 467.728 147.754C467.638 147.663 467.809 146.847 467.711 146.81C467.662 146.791 466.399 146.314 465.988 146.051C464.998 145.417 464.105 144.796 463.195 144C462.228 143.154 461.258 141.927 460.153 141.254C459.687 140.97 459.306 140.567 458.744 140.481C457.286 140.256 457.704 141.271 456.43 141.473C455.645 141.597 455.073 140.681 454.047 141.076C453.16 141.417 452.645 142.661 452.25 143.401C450.813 146.096 449.704 148.996 448.298 151.719C441.104 165.644 432.928 179.041 425.96 193.096C422.604 199.867 419.103 206.685 416.74 213.881C415.037 219.071 411.191 226.652 414.5 231.838C416.906 235.609 421.724 237.237 425.568 239.059C431.351 241.8 436.683 245.383 442.53 248.041C449.503 251.211 456.273 254.526 463.07 258.065C465.968 259.575 468.584 261.749 471.473 263.178C473.24 264.053 475.969 262.561 476.544 264.565C478.759 261.883 482.344 263.671 484.906 261.782C486.413 260.671 487.514 258.483 488.771 257.114C490.657 255.063 492.703 253.16 494.627 251.144C502.263 243.139 509.313 234.801 516.26 226.203C522.896 217.992 530.648 210.234 536.253 201.246C538.479 197.678 538.882 193.936 537.413 189.995C536.341 187.119 533.757 182.777 530.066 184.681C531.466 182.357 526.067 179.876 524.429 179.421C524.405 179.415 524.082 181.2 523.625 181.156C523.788 181.172 522.253 177.2 521.578 176.691C519.577 175.176 517.141 173.408 514.957 172.161C512.953 171.018 510.839 170.451 508.898 169.171C506.545 167.62 504.386 165.781 502.024 164.24C499.744 162.753 497.203 160.995 494.683 159.972C492.498 159.085 490.535 158.912 488.569 157.458C486.137 155.659 484.016 154.439 481.21 153.2C478.783 152.128 475.42 151.192 473.685 149.092Z" fill="white"/>
<path fill-rule="evenodd" clip-rule="evenodd" d="M368.496 245.764C367.977 247.001 363.132 246.584 363.026 245.125C362.869 242.945 369.397 243.613 368.496 245.764ZM373.642 244.954C376.387 245.177 380.898 247.042 383.544 245.915C387.582 244.195 383.342 241.556 381.176 240.767C378.971 239.964 375.688 240.39 374.554 238.086C373.702 236.352 375.809 231.513 373.195 232.291C370.452 233.107 371.249 240.039 366.945 237.702C364.892 236.587 365.73 229.796 362.291 233.266C361.35 234.215 361.268 235.958 360.021 236.665C358.749 237.388 357.154 236.635 355.811 236.698C352.256 236.865 351.123 240.19 354.725 241.509C356.059 241.998 361.084 242.594 358.04 244.773C356.122 246.145 351.86 243.265 350.213 245.654C347.949 248.936 354.014 249.01 355.643 249.992C358.403 251.655 356.123 255.538 356.343 258.304C356.68 262.529 359.135 261.646 360.027 258.07C360.783 255.036 359.846 250.669 364.42 251.875C371.868 253.838 360.278 263.294 365.734 265.714C369.212 267.257 369.705 258.917 369.975 257.48C370.975 252.18 373.953 253.417 378.463 253.579C383.733 253.769 385.005 249.871 379.425 248.755C377.644 248.398 375.195 248.849 373.649 247.714C372.734 247.044 371.477 244.778 373.642 244.954Z" fill="white"/>
<path fill-rule="evenodd" clip-rule="evenodd" d="M558.383 105.055C556.213 104.261 553.528 102.711 551.116 103.24C548.552 103.801 547.52 106.368 545.656 107.912C540.588 112.11 537.636 105.854 534.852 102.425C532.222 99.1878 529.013 98.402 525.302 100.391C523.824 101.184 517.596 104.818 518.682 107.145C519.463 108.821 522.54 107.317 523.59 106.951C525.868 106.158 527.984 105.464 530.315 106.62C534.686 108.788 535.82 114.732 541.108 115.659C546.577 116.618 546.757 111.414 550.659 109.455C553.276 108.142 555.098 110.466 557.622 110.003C560.027 109.563 561.14 106.062 558.383 105.055Z" fill="white"/>
<path fill-rule="evenodd" clip-rule="evenodd" d="M514.232 126.028C516.166 126.448 517.428 122.697 518.639 121.746C520.647 120.168 524.129 119.85 526.174 121.438C530.168 124.537 528.791 131.226 534.478 132.97C539.56 134.529 541.954 127.835 546.232 126.169C548.719 125.2 551.45 124.565 550.479 121.088C549.809 118.684 547.834 118.066 545.687 118.99C541.997 120.576 540.744 127.037 536.37 127.152C531.844 127.272 531.353 120.747 529.41 117.905C526.447 113.574 520.358 112.527 516.898 116.669C515.853 117.919 510.548 125.231 514.232 126.028Z" fill="white"/>
</svg>
