<svg xmlns="http://www.w3.org/2000/svg" width="16" height="16" viewBox="0 0 16 16">
    <path fill="#000" fill-rule="evenodd" d="M16 1.602L14.398 0 8.004 6.4 1.602 0 0 1.602l6.4 6.402L0 14.398 1.602 16l6.402-6.4 6.394 6.4L16 14.398 9.6 8.004z"/>
</svg>
