<svg xmlns="http://www.w3.org/2000/svg" xmlns:xlink="http://www.w3.org/1999/xlink" width="30" height="30" viewBox="0 0 30 30">
    <defs>
        <path id="a" d="M.004.027V8h5.93V.027H.003z"/>
    </defs>
    <g fill="none" fill-rule="evenodd">
        <g transform="translate(0 22)">
            <mask id="b" fill="#fff">
                <use xlink:href="#a"/>
            </mask>
            <path fill="#FFF" d="M3.788.226a.666.666 0 0 0-.948 0L1.462 1.619a.684.684 0 0 0 0 .96.665.665 0 0 0 .949 0l1.377-1.393a.684.684 0 0 0 0-.96zM5.737 2.197a.665.665 0 0 0-.949 0L.197 6.842a.684.684 0 0 0 0 .96.665.665 0 0 0 .948 0l4.592-4.646a.684.684 0 0 0 0-.96z" mask="url(#b)"/>
        </g>
        <path fill="#FFF" d="M8.784 26.216a.738.738 0 0 0-1.043 0l-2.525 2.525a.737.737 0 1 0 1.043 1.043l2.525-2.525a.738.738 0 0 0 0-1.043z"/>
        <g fill="#FFF">
            <path d="M21.836 8.164a4.402 4.402 0 0 0-3.133-1.298c-1.184 0-2.296.461-3.133 1.298a4.402 4.402 0 0 0-1.298 3.134c0 1.183.46 2.296 1.298 3.133a4.402 4.402 0 0 0 3.133 1.297c1.184 0 2.296-.46 3.133-1.297a4.436 4.436 0 0 0 0-6.267zm-1.016 5.25a2.974 2.974 0 0 1-2.117.877c-.8 0-1.552-.311-2.117-.876a2.974 2.974 0 0 1-.877-2.117c0-.8.311-1.552.877-2.117a2.973 2.973 0 0 1 2.117-.877c.8 0 1.551.311 2.117.877a2.997 2.997 0 0 1 0 4.234z"/>
            <path d="M29.47 1.04a.718.718 0 0 0-.509-.51A14.83 14.83 0 0 0 21.44.5a14.699 14.699 0 0 0-1.232.378 14.76 14.76 0 0 0-5.486 3.46l-.012.013-.019.02-.018.02-2.2 2.561a12.94 12.94 0 0 0-11.327 6.44.718.718 0 0 0 .444 1.057l3.994 1.017L4.8 17.59a2.882 2.882 0 0 0 .665 3.025l3.92 3.92a2.883 2.883 0 0 0 3.026.665l2.123-.781 1.017 3.994a.719.719 0 0 0 1.056.444c.966-.56 1.86-1.247 2.658-2.045a12.963 12.963 0 0 0 3.783-9.282l2.561-2.2.02-.018.02-.02.012-.012.002-.002a14.76 14.76 0 0 0 3.838-6.715 14.826 14.826 0 0 0-.032-7.523zM2.906 13.301a11.523 11.523 0 0 1 8.281-4.855l-4.91 5.713-3.371-.858zm3.244 4.783l.668-1.816.928.927-1.402 2.242a1.442 1.442 0 0 1-.194-1.353zm1.229 2.41l1.41-2.256.978.978-1.833 1.833-.555-.555zm1.572 1.571l1.832-1.832.979.978-2.256 1.41-.555-.556zm2.964 1.785c-.457.168-.967.09-1.353-.195l2.243-1.401.927.927-1.817.669zm6.334 1.944c-.48.48-.999.915-1.55 1.3l-.859-3.372 5.714-4.91a11.525 11.525 0 0 1-3.305 6.982zm6.4-11.535l-9.578 8.229-7.56-7.56 5.814-6.765a.526.526 0 0 0 .017-.02l2.399-2.792a13.339 13.339 0 0 1 4.57-2.98l7.317 7.318a13.33 13.33 0 0 1-2.979 4.57zm3.473-6.108L21.85 1.878a13.395 13.395 0 0 1 6.335-.061c.486 2.08.465 4.26-.062 6.335z"/>
        </g>
    </g>
</svg>
