<svg xmlns="http://www.w3.org/2000/svg" width="20" height="20" viewBox="0 0 20 20">
    <g fill="none" fill-rule="evenodd">
        <circle cx="10" cy="10" r="10" fill="#EE5649"/>
        <path fill="#FFF" d="M14 7.7l-.7-.7-2.798 2.8L7.7 7 7 7.7l2.8 2.802L7 13.299l.7.701 2.802-2.8 2.797 2.8.701-.7-2.8-2.798z"/>
    </g>
</svg>
