<svg xmlns="http://www.w3.org/2000/svg" xmlns:xlink="http://www.w3.org/1999/xlink" width="357" height="710" viewBox="0 0 357 710">
    <defs>
        <filter id="a" width="114.2%" height="107.4%" x="-6.8%" y="-2.1%" filterUnits="objectBoundingBox">
            <feOffset dy="2" in="SourceAlpha" result="shadowOffsetOuter1"/>
            <feGaussianBlur in="shadowOffsetOuter1" result="shadowBlurOuter1" stdDeviation="5"/>
            <feColorMatrix in="shadowBlurOuter1" result="shadowMatrixOuter1" values="0 0 0 0 0 0 0 0 0 0 0 0 0 0 0 0 0 0 0.17 0"/>
            <feMerge>
                <feMergeNode in="shadowMatrixOuter1"/>
                <feMergeNode in="SourceGraphic"/>
            </feMerge>
        </filter>
        <filter id="b" width="111.3%" height="696.3%" x="-5.6%" y="-298.1%" filterUnits="objectBoundingBox">
            <feGaussianBlur in="SourceGraphic" stdDeviation="5.963"/>
        </filter>
        <rect id="c" width="6.785" height="28.239" y="85.847" rx="3.393"/>
        <rect id="d" width="6.785" height="49.701" y="145.714" rx="3.393"/>
        <rect id="e" width="6.785" height="49.701" y="207.841" rx="3.393"/>
        <rect id="f" width="6.785" height="49.701" x="330.215" y="145.714" rx="3.393"/>
        <rect id="g" width="330.215" height="680" x="3.393" rx="40"/>
        <rect id="h" width="50.889" height="50.831" x="143.621" y="609.967" rx="25.415"/>
        <ellipse id="i" cx="169.631" cy="21.462" rx="4.523" ry="4.518"/>
        <ellipse id="j" cx="116.48" cy="42.924" rx="5.654" ry="5.648"/>
        <rect id="k" width="53.151" height="6.777" x="142.49" y="39.535" rx="3.389"/>
        <rect id="l" width="294" height="524" x="20" y="65" rx="3"/>
    </defs>
    <g fill="none" fill-rule="evenodd" filter="url(#a)" transform="translate(10 8)">
        <rect width="317" height="6" x="11" y="674" fill="#C9C9C9" filter="url(#b)" rx="3" style="mix-blend-mode:multiply"/>
        <use fill="#FFF" xlink:href="#c"/>
        <rect width="5.785" height="27.239" x=".5" y="86.347" stroke="#E0E0E0" rx="2.893"/>
        <use fill="#FFF" xlink:href="#d"/>
        <rect width="5.785" height="48.701" x=".5" y="146.214" stroke="#E0E0E0" rx="2.893"/>
        <use fill="#FFF" xlink:href="#e"/>
        <rect width="5.785" height="48.701" x=".5" y="208.341" stroke="#E0E0E0" rx="2.893"/>
        <use fill="#FFF" xlink:href="#f"/>
        <rect width="5.785" height="48.701" x="330.715" y="146.214" stroke="#E0E0E0" rx="2.893"/>
        <use fill="#FFF" xlink:href="#g"/>
        <rect width="329.215" height="679" x="3.893" y=".5" stroke="#E0E0E0" rx="40"/>
        <g>
            <use fill="#F9F9F9" xlink:href="#h"/>
            <rect width="49.889" height="49.831" x="144.121" y="610.467" stroke="#E0E0E0" rx="24.915"/>
        </g>
        <g>
            <use fill="#E0E0E0" xlink:href="#i"/>
            <ellipse cx="169.631" cy="21.462" stroke="#F9F9F9" rx="4.023" ry="4.018"/>
        </g>
        <g>
            <use fill="#E0E0E0" xlink:href="#j"/>
            <ellipse cx="116.48" cy="42.924" stroke="#F9F9F9" rx="5.154" ry="5.148"/>
        </g>
        <g>
            <use fill="#E0E0E0" xlink:href="#k"/>
            <rect width="52.151" height="5.777" x="142.99" y="40.035" stroke="#F9F9F9" rx="2.889"/>
        </g>
        <g>
            <use fill="#FFF" xlink:href="#l"/>
            <rect width="296" height="526" x="19" y="64" stroke="#E0E0E0" stroke-width="2" rx="3"/>
        </g>
    </g>
</svg>
