<svg xmlns="http://www.w3.org/2000/svg" xmlns:xlink="http://www.w3.org/1999/xlink" width="15" height="11" viewBox="0 0 15 11">
    <defs>
        <rect id="a" width="15" height="10.5" rx="2"/>
    </defs>
    <g fill="none" fill-rule="evenodd">
        <mask id="b" fill="#fff">
            <use xlink:href="#a"/>
        </mask>
        <use fill="#FFF" xlink:href="#a"/>
        <rect width="14.5" height="10" x=".25" y=".25" stroke="#F5F5F5" stroke-width=".5" rx="2"/>
        <path fill="#0C47B7" d="M0 3.75h15V7.5H0z" mask="url(#b)"/>
        <path fill="#E53B35" d="M0 6.75h15v3.75H0z" mask="url(#b)"/>
    </g>
</svg>
