<svg xmlns="http://www.w3.org/2000/svg" xmlns:xlink="http://www.w3.org/1999/xlink" width="19" height="14" viewBox="0 0 19 14">
    <defs>
        <rect id="a" width="19" height="14" rx="2"/>
    </defs>
    <g fill="none" fill-rule="evenodd">
        <mask id="b" fill="#fff">
            <use xlink:href="#a"/>
        </mask>
        <use fill="#FFF" xlink:href="#a"/>
        <path fill="#156DD1" d="M0 0h19v7H0z" mask="url(#b)"/>
        <path fill="#FFD948" d="M0 7h19v7H0z" mask="url(#b)"/>
    </g>
</svg>
