<svg xmlns="http://www.w3.org/2000/svg" width="25" height="24" viewBox="0 0 25 24">
    <g fill="none" fill-rule="evenodd" stroke="#547DA6" stroke-linecap="square" stroke-width="2">
        <path d="M2.213 1.785l20.726 20.726M22.939 1.785L2.213 22.511"/>
    </g>
</svg>
