<svg xmlns="http://www.w3.org/2000/svg" width="12" height="15" viewBox="0 0 12 15">
    <path fill="#FFF" fill-rule="evenodd" d="M11.413 6.671L1.544.556C.824.085.236.432.236 1.328v11.87c0 .894.589 1.242 1.308.77l9.869-6.113s.351-.247.351-.593c0-.344-.351-.59-.351-.59z"/>
</svg>
