<svg xmlns="http://www.w3.org/2000/svg" width="47" height="18">
    <path fill="none" stroke="#006AF7" d="M5.5 7s20.6 19.748 38 0"/>
    <path fill="none" stroke="#1174F8" d="M3.5 3a3 3 0 1 1 0 6 3 3 0 0 1 0-6z"/>
    <path fill="#1174F8" fill-rule="evenodd" d="M39.036 5.464L45.634.036l.83 8.562"/>
</svg>
