<svg xmlns="http://www.w3.org/2000/svg" width="23" height="23">
    <path fill="#EB58C6" fill-rule="evenodd" d="M3.222 18.778c-4.296-4.296-4.296-11.261 0-15.556 4.296-4.296 11.26-4.296 15.556 0"/>
    <path fill="#FFF739" fill-rule="evenodd" d="M19.014 3.458c4.165 4.165 4.06 11.024-.236 15.32-4.296 4.296-11.155 4.401-15.32.236"/>
</svg>
