<svg xmlns="http://www.w3.org/2000/svg" xmlns:xlink="http://www.w3.org/1999/xlink" width="20" height="20" viewBox="0 0 20 20">
    <defs>
        <path id="a" d="M4 0H0v7h8V0H4z"/>
    </defs>
    <g fill="none" fill-rule="evenodd">
        <circle cx="10" cy="10" r="10" fill="#5CC148"/>
        <g transform="translate(6 7)">
            <mask id="b" fill="#fff">
                <use xlink:href="#a"/>
            </mask>
            <path fill="#FFF" d="M2.345 5.189L.832 3.556 0 4.454l1.997 2.155.002-.002.364.393L8 .915 7.152 0z" mask="url(#b)"/>
        </g>
    </g>
</svg>
