<svg xmlns="http://www.w3.org/2000/svg" width="22" height="22">
    <path fill="#55CCDF" fill-rule="evenodd" d="M0 0l22 22H0V0z"/>
    <path fill="#FFF738" fill-rule="evenodd" d="M22 22L0 0h22v22z"/>
</svg>
