<svg xmlns="http://www.w3.org/2000/svg" viewBox="0 0 5116.0018 1678.5221">
  <defs>
    <style>
      .cls-1 {
        fill: none;
      }
    </style>
  </defs>
  <g id="Artboard_outline" data-name="Artboard outline">
    <rect class="cls-1" width="5116.0018" height="1678.5221"/>
  </g>
  <g id="Lockup">
    <g>
      <g>
        <path d="M1128.6917,416.2923h75.2206L1331.82,647.6635l127.9048-231.3712h73.5907V796.478h-61.3715V505.09L1359.7908,706.864H1302.22L1190.0633,505.09V796.478h-61.3716Z"/>
        <path d="M1731.2828,803.2633q-42.6409,0-74.9517-18.8716a131.9856,131.9856,0,0,1-50.3739-52.2727q-18.0663-33.4011-18.0582-76.5815,0-43.7248,17.65-77.3981,17.6482-33.6636,49.0162-52.681,31.3645-19.0044,72.1-19.0077,40.4586,0,69.657,19.1438,29.1871,19.14,44.9431,53.6336,15.7431,34.49,15.7479,80.9236v16.8366H1648.7261q5.7061,34.7621,28.1065,54.7224,22.4067,19.9571,56.6212,19.96,27.4277,0,47.2534-8.1461,19.8162-8.156,37.2021-24.7171l32.5878,39.9206Q1801.8827,803.27,1731.2828,803.2633Zm44.807-225.5322q-19.2864-19.6849-50.51-19.6881-30.4167,0-50.9182,20.0964-20.5063,20.1028-25.9355,54.0419H1798.085Q1795.3681,597.429,1776.09,577.7311Z"/>
        <path d="M1931.43,563.4737h-56.4851V513.2359H1931.43V430.1414h59.2v83.0945h85.8132v50.2378h-85.8132V690.8374q0,31.7778,10.8616,45.3514,10.8582,13.58,37.202,13.5769a174.669,174.669,0,0,0,19.8242-.9462q8.1462-.9526,17.9254-2.5792v49.6934a168.2113,168.2113,0,0,1-22.6757,4.8864,178.272,178.272,0,0,1-26.4766,1.9053q-95.8679,0-95.8614-104.8241Z"/>
        <path d="M2384.9443,796.478h-58.1149V756.83a105.0236,105.0236,0,0,1-39.3763,34.3538q-23.8989,12.0734-54.3141,12.08-37.4742,0-66.3972-19.1438-28.92-19.1406-45.4843-52.681-16.5693-33.5371-16.5645-76.7176,0-43.4429,16.8367-76.8537,16.8318-33.4011,46.57-52.4088,29.7363-19.0044,68.2992-19.0077,29.0559,0,52.14,11.27a103.1173,103.1173,0,0,1,38.2908,31.9041V513.2359h58.1149Zm-59.2-184.1209q-9.5118-24.1663-30.0085-38.1515-20.5063-13.9884-47.3895-13.9852-38.0185,0-60.5582,25.5272-22.5429,25.5272-22.5364,68.9733,0,43.7247,21.7231,69.2455,21.7213,25.5367,58.9283,25.5271,27.4277,0,48.8833-14.1213a79.7941,79.7941,0,0,0,30.9579-38.0153Z"/>
        <path d="M2529.1382,416.2923h155.603q64.9019,0,98.1717,26.2011,33.26,26.2174,33.2651,72.1035,0,63.0014-60.83,84.7276,79.2936,20.0933,79.2969,92.8738,0,49.1491-35.4393,76.7177-35.4376,27.5587-101.7,27.562H2529.1382Zm148.27,162.6636q75.77,0,75.7682-55.1242,0-27.4324-17.7893-40.1928-17.7894-12.7635-54.9914-12.7668H2590.51V578.9559Zm18.1976,162.9359q76.0323,0,76.0371-57.0295,0-26.334-17.9254-39.7781-17.9205-13.4441-61.9159-13.4473H2590.51V741.8918Z"/>
        <path d="M3128.1973,796.478h-58.3839V755.7408q-32.5894,47.5257-90.1585,47.5225-49.97,0-76.7176-31.4959-26.752-31.5055-26.7488-90.1584V513.2359h59.2V674.5451q0,39.3795,13.8491,58.2479,13.8523,18.8779,43.4494,18.878,25.5222,0,45.3514-13.4473,19.8209-13.4343,30.9579-37.607V513.2359h59.2Z"/>
        <path d="M3386.988,779.2331q-31.5055,24.03-84.4555,24.03-44.8038,0-78.072-15.748-33.27-15.7479-49.5606-42.3638l39.9206-34.7621q12.4866,19.0141,34.4867,30.1479,21.9984,11.13,52.412,11.1337,56.7557,0,56.7573-33.1354,0-14.1149-9.371-22.6757-9.3662-8.5545-30.8218-12.08l-54.5831-9.5071q-38.5629-6.7851-58.9283-27.426-20.37-20.6374-20.3686-53.2253,0-39.37,31.3662-63.2768,31.3647-23.8941,84.8638-23.8941,38.83,0,69.6537,15.884,30.82,15.8841,45.76,41.139l-41.0061,30.958q-10.3236-16.827-30.6858-26.61-20.37-9.7792-47.2534-9.7792-25.255,0-38.968,8.6905-13.7163,8.7-13.713,24.1727,0,13.308,8.4183,20.6343,8.4135,7.3394,28.2426,10.868l61.3715,10.8615q36.93,6.513,56.4851,27.8343,19.5537,21.318,19.552,53.6336Q3418.49,755.2063,3386.988,779.2331Z"/>
        <path d="M3472.26,465.3052q-10.8679-10.7221-10.8647-27.29,0-16.8366,10.8647-27.426,10.8583-10.5957,27.97-10.5893,17.1089,0,27.97,10.5893,10.8582,10.5861,10.8615,27.426,0,16.5645-10.8615,27.29-10.8631,10.7319-27.97,10.732Q3483.1216,476.0372,3472.26,465.3052Zm-1.63,47.9307h59.2V796.478h-59.2Z"/>
        <path d="M3595,513.2359h58.3839v41.2816q32.8569-48.07,91.5162-48.0668,50.5147,0,77.667,31.5023,27.1554,31.5055,27.157,90.1585V796.478h-59.2V635.1689q0-39.642-14.1213-58.384-14.1246-18.7419-44.2659-18.7419-26.3389,0-46.4369,13.5833-20.0981,13.58-31.4991,38.0154V796.478H3595Z"/>
        <path d="M4038.7281,803.2633q-42.6409,0-74.9517-18.8716a131.9856,131.9856,0,0,1-50.3739-52.2727q-18.0663-33.4011-18.0582-76.5815,0-43.7248,17.65-77.3981,17.6482-33.6636,49.0162-52.681,31.3646-19.0044,72.1-19.0077,40.4586,0,69.657,19.1438,29.1871,19.14,44.9431,53.6336,15.7431,34.49,15.7479,80.9236v16.8366H3956.1714q5.7061,34.7621,28.1065,54.7224,22.4067,19.9571,56.6212,19.96,27.4277,0,47.2534-8.1461,19.8162-8.156,37.2021-24.7171l32.5878,39.9206Q4109.328,803.27,4038.7281,803.2633Zm44.807-225.5322q-19.2864-19.6849-50.51-19.6881-30.4167,0-50.9182,20.0964-20.5064,20.1028-25.9355,54.0419H4105.53Q4102.8134,597.429,4083.5351,577.7311Z"/>
        <path d="M4407.2357,779.2331q-31.5054,24.03-84.4554,24.03-44.8038,0-78.0721-15.748-33.27-15.7479-49.5606-42.3638l39.9207-34.7621q12.4865,19.0141,34.4866,30.1479,21.9985,11.13,52.4121,11.1337,56.7557,0,56.7572-33.1354,0-14.1149-9.3709-22.6757-9.3661-8.5545-30.8219-12.08l-54.583-9.5071q-38.563-6.7851-58.9283-27.426-20.37-20.6374-20.3686-53.2253,0-39.37,31.3662-63.2768,31.3645-23.8941,84.8637-23.8941,38.83,0,69.6538,15.884,30.82,15.8841,45.76,41.139l-41.0062,30.958q-10.3236-16.827-30.6857-26.61-20.37-9.7792-47.2535-9.7792-25.255,0-38.968,8.6905-13.7162,8.7-13.713,24.1727,0,13.308,8.4184,20.6343,8.4134,7.3394,28.2425,10.868l61.3715,10.8615q36.93,6.513,56.4851,27.8343,19.5537,21.318,19.5521,53.6336Q4438.7381,755.2063,4407.2357,779.2331Z"/>
        <path d="M4684.5,779.2331q-31.5055,24.03-84.4555,24.03-44.8038,0-78.0721-15.748-33.27-15.7479-49.56-42.3638l39.9206-34.7621q12.4866,19.0141,34.4867,30.1479,21.9984,11.13,52.412,11.1337,56.7556,0,56.7573-33.1354,0-14.1149-9.371-22.6757-9.3661-8.5545-30.8218-12.08l-54.5831-9.5071q-38.5629-6.7851-58.9283-27.426-20.37-20.6374-20.3686-53.2253,0-39.37,31.3662-63.2768,31.3647-23.8941,84.8638-23.8941,38.83,0,69.6537,15.884,30.82,15.8841,45.76,41.139l-41.0061,30.958q-10.3237-16.827-30.6858-26.61-20.37-9.7792-47.2535-9.7792-25.2549,0-38.9679,8.6905-13.7163,8.7-13.713,24.1727,0,13.308,8.4183,20.6343,8.4135,7.3394,28.2425,10.868l61.3715,10.8615q36.93,6.513,56.4852,27.8343,19.5535,21.318,19.552,53.6336Q4716.0018,755.2063,4684.5,779.2331Z"/>
        <path d="M1128.6917,891.5512h144.1972q72.7757,0,112.293,32.9929,39.5106,32.9928,39.5123,94.6365,0,61.3781-39.3763,94.507-39.38,33.1289-112.429,33.1289H1190.88V1271.737h-62.1881ZM1267.73,1090.8758q47.793,0,70.6064-17.6533,22.81-17.6435,22.8118-53.77,0-37.2019-22.9479-54.58-22.9512-17.3809-70.47-17.381H1190.88v143.3838Z"/>
        <path d="M1726.3931,1271.737h-58.1149v-39.6485a105.0228,105.0228,0,0,1-39.3763,34.3538q-23.8989,12.0735-54.3141,12.08-37.4742,0-66.3972-19.1438-28.92-19.14-45.4843-52.6809-16.5693-33.5373-16.5645-76.7177,0-43.4428,16.8367-76.8537,16.8318-33.4011,46.57-52.4088,29.7363-19.0044,68.2992-19.0076,29.0559,0,52.14,11.27a103.1163,103.1163,0,0,1,38.2908,31.9041V988.4949h58.1149Zm-59.2-184.121q-9.5118-24.1662-30.0085-38.1514-20.5063-13.9884-47.3895-13.9852-38.0187,0-60.5582,25.5272-22.5429,25.5272-22.5364,68.9732,0,43.7248,21.7231,69.2455,21.7214,25.5369,58.9283,25.5272,27.4275,0,48.8833-14.1213a79.7951,79.7951,0,0,0,30.9579-38.0153Z"/>
        <path d="M1786.1315,988.4949h58.384v42.3638q25.2549-46.4369,70.6063-46.4336a109.5628,109.5628,0,0,1,17.3811,1.3544v54.8585q-8.9628-.8166-18.1944-.8166-51.5987,0-68.9765,49.9656v181.95h-59.2005Z"/>
        <path d="M2006.0871,1038.7327h-40.4618V988.4949h40.4618V905.4h59.2005v83.0946h85.8132v50.2378h-85.8132v127.3637q0,31.7777,10.8648,45.3514,10.8582,13.58,37.202,13.5769a174.6677,174.6677,0,0,0,19.8242-.9462q8.1462-.9526,17.9222-2.5793v49.6934a168.0323,168.0323,0,0,1-22.6725,4.8864,178.284,178.284,0,0,1-26.48,1.9053q-95.863,0-95.8614-104.8241Z"/>
        <path d="M2198.8921,988.4949h58.384v41.2816q32.8567-48.07,91.5161-48.0668,50.5148,0,77.667,31.5023,27.1554,31.5055,27.1571,90.1584V1271.737h-59.2V1110.4278q0-39.642-14.1213-58.3839-14.1246-18.7421-44.2659-18.742-26.3389,0-46.4369,13.5834-20.098,13.58-31.4991,38.0153V1271.737h-59.2Z"/>
        <path d="M2642.62,1278.5222q-42.6409,0-74.9516-18.8716a131.9843,131.9843,0,0,1-50.3739-52.2727q-18.0665-33.4011-18.0583-76.5815,0-43.7247,17.65-77.3981,17.6484-33.6636,49.0162-52.681,31.3646-19.0044,72.1-19.0076,40.4584,0,69.6569,19.1437,29.1871,19.1406,44.9432,53.6337,15.743,34.49,15.7479,80.9235v16.8367H2560.0637q5.7063,34.7621,28.1065,54.7223,22.4067,19.9572,56.6212,19.96,27.4277,0,47.2535-8.1462,19.8161-8.1558,37.202-24.7171l32.5878,39.9207Q2713.22,1278.5287,2642.62,1278.5222Zm44.807-225.5322q-19.2863-19.6848-50.51-19.6881-30.4167,0-50.9182,20.0964-20.5064,20.103-25.9355,54.0419h149.359Q2706.7056,1072.6879,2687.4274,1052.99Z"/>
        <path d="M2818.32,988.4949h58.3839v43.4526q27.4277-47.5159,74.9517-47.5224,15.4806,0,25.255,2.7153v54.58a194.3121,194.3121,0,0,0-26.8849-1.8988q-53.2269,0-72.5052,47.7946v184.121h-59.2Z"/>
        <path d="M3205.56,1254.4921q-31.5055,24.03-84.4555,24.03-44.8037,0-78.072-15.7479-33.27-15.7479-49.5606-42.3638l39.9207-34.7621q12.4865,19.0141,34.4866,30.1479,21.9984,11.13,52.412,11.1337,56.7557,0,56.7573-33.1355,0-14.1147-9.371-22.6757-9.366-8.5544-30.8218-12.08l-54.583-9.5071q-38.563-6.7852-58.9284-27.426-20.37-20.6376-20.3686-53.2254,0-39.37,31.3663-63.2768,31.3646-23.894,84.8637-23.894,38.83,0,69.6538,15.884,30.82,15.884,45.76,41.139l-41.0061,30.9579q-10.3236-16.8268-30.6858-26.6094-20.37-9.7793-47.2534-9.7793-25.255,0-38.968,8.6905-13.7163,8.7-13.713,24.1728,0,13.3079,8.4183,20.6343,8.4135,7.3392,28.2426,10.868l61.3715,10.8615q36.93,6.513,56.4851,27.8343,19.5537,21.318,19.552,53.6336Q3237.062,1230.4651,3205.56,1254.4921Z"/>
      </g>
      <path d="M832,403.3565c-49.3565,0-87.9392,37.1744-122.8656,84.3972C661.1389,426.6426,621,403.3565,572.9655,403.3565,475.0345,403.3565,400,530.8047,400,665.7013c0,84.4138,40.8382,137.6551,109.2414,137.6551,49.2322,0,84.64-23.21,147.5862-133.2413,0,0,26.2389-46.3365,44.29-78.2554q9.4881,15.3191,19.9859,33.014l29.5172,49.6552C808.12,770.748,840.1561,803.3564,898.2068,803.3564c66.6384,0,103.7242-53.9693,103.7242-140.1379C1001.931,521.9772,925.2047,403.3565,832,403.3565ZM608.8276,640.322c-51.0345,80-68.69,97.931-97.1035,97.931-29.2414,0-46.6207-25.6713-46.6207-71.4483,0-97.931,48.8276-198.0689,107.0345-198.0689,31.5205,0,57.8615,18.2041,98.2089,75.9652C632.0352,603.4654,608.8276,640.322,608.8276,640.322Zm192.6113-10.0712-35.292-58.8593q-14.3261-23.2992-27.5353-42.8921c31.8079-49.0941,58.0453-73.5567,89.25-73.5567,64.8276,0,116.69,95.4482,116.69,212.69,0,44.69-14.6374,70.6207-44.9656,70.6207C870.5179,738.253,856.6314,719.0554,801.4389,630.2508Z"/>
    </g>
  </g>
</svg>
