<svg width="24" height="54" viewBox="0 0 24 54" fill="none" xmlns="http://www.w3.org/2000/svg">
<path d="M6 27L6.94071 27.3392L6 27ZM21.9887 0.849803C21.9057 0.303786 21.3958 -0.0716066 20.8498 0.011344L11.9519 1.36309C11.4059 1.44604 11.0305 1.95592 11.1134 2.50194C11.1964 3.04796 11.7063 3.42335 12.2523 3.3404L20.1615 2.13885L21.3631 10.0481C21.446 10.5941 21.9559 10.9695 22.5019 10.8866C23.048 10.8036 23.4234 10.2937 23.3404 9.74771L21.9887 0.849803ZM1 53C1.99582 53.0913 1.99582 53.0913 1.99582 53.0913C1.99583 53.0912 1.99584 53.0911 1.99586 53.0909C1.9959 53.0905 1.99596 53.0899 1.99604 53.089C1.9962 53.0872 1.99645 53.0845 1.9968 53.0808C1.99749 53.0733 1.99855 53.062 1.99997 53.0469C2.00282 53.0167 2.00714 52.9713 2.01295 52.9114C2.02456 52.7916 2.04212 52.614 2.06575 52.3839C2.11301 51.9239 2.18453 51.2546 2.28134 50.4206C2.475 48.7522 2.7696 46.4266 3.17311 43.7993C3.98293 38.5264 5.22158 32.1065 6.94071 27.3392L5.05929 26.6608C3.27095 31.62 2.00959 38.2002 1.19629 43.4957C0.78823 46.1526 0.490476 48.5032 0.29468 50.19C0.19676 51.0336 0.124282 51.7117 0.0762173 52.1796C0.0521833 52.4135 0.0342492 52.595 0.0222866 52.7184C0.0163051 52.78 0.0118162 52.8272 0.00880378 52.8592C0.00729757 52.8751 0.00616043 52.8873 0.0053904 52.8956C0.00500541 52.8997 0.00471216 52.9029 0.0045104 52.9051C0.00440955 52.9062 0.00433158 52.907 0.00427645 52.9076C0.00424885 52.9079 0.00422459 52.9082 0.00421083 52.9083C0.00419235 52.9085 0.00417953 52.9087 1 53ZM6.94071 27.3392C8.88963 21.9347 12.5892 15.5118 15.8353 10.401C17.4527 7.85445 18.9469 5.65004 20.0365 4.0826C20.5812 3.29907 21.0245 2.67518 21.3311 2.24785C21.4844 2.03419 21.6035 1.8697 21.684 1.75899C21.7242 1.70364 21.7548 1.66174 21.7752 1.63386C21.7854 1.61992 21.7931 1.60949 21.7981 1.60263C21.8006 1.59921 21.8025 1.59667 21.8037 1.59505C21.8043 1.59423 21.8047 1.59364 21.805 1.59328C21.8051 1.5931 21.8052 1.593 21.8053 1.59291C21.8053 1.59287 21.8053 1.59288 21 0.999999C20.1947 0.407115 20.1946 0.407245 20.1945 0.407428C20.1944 0.407565 20.1942 0.407809 20.194 0.408084C20.1936 0.408633 20.193 0.409412 20.1923 0.410419C20.1908 0.412425 20.1887 0.41534 20.1859 0.419154C20.1803 0.426776 20.172 0.437987 20.1613 0.452716C20.1397 0.482169 20.1079 0.525687 20.0665 0.58269C19.9836 0.696696 19.862 0.864661 19.7061 1.08195C19.3943 1.51652 18.9452 2.14854 18.3943 2.941C17.2928 4.52557 15.7826 6.75357 14.147 9.32867C10.8873 14.4611 7.08685 21.0382 5.05929 26.6608L6.94071 27.3392Z" fill="white"/>
</svg>
