<?xml version="1.0" encoding="UTF-8"?>
<svg width="392px" height="317px" viewBox="0 0 392 317" version="1.1" xmlns="http://www.w3.org/2000/svg" xmlns:xlink="http://www.w3.org/1999/xlink">
    <!-- Generator: Sketch 43.1 (39012) - http://www.bohemiancoding.com/sketch -->
    <title>mark</title>
    <desc>Created with Sketch.</desc>
    <defs>
        <polygon id="path-1" points="195.581 0.974 0.06 0.974 0.06 318.002 391.102 318.002 391.102 0.974 195.581 0.974"></polygon>
    </defs>
    <g id="Page-1" stroke="none" stroke-width="1" fill="none" fill-rule="evenodd">
        <g id="mark" transform="translate(0.000000, -1.000000)">
            <mask id="mask-2" fill="white">
                <use xlink:href="#path-1"></use>
            </mask>
            <g id="Clip-2"></g>
            <polygon id="Fill-1" fill="#FFFFFF" mask="url(#mask-2)" points="114.637 235.982 40.668 162.017 0 202.685 97.605 300.295 97.719 300.181 115.539 318.002 391.102 42.435 349.645 0.974"></polygon>
        </g>
    </g>
</svg>