<svg xmlns="http://www.w3.org/2000/svg" xmlns:xlink="http://www.w3.org/1999/xlink" width="15" height="11" viewBox="0 0 15 11">
    <defs>
        <rect id="a" width="15" height="11" rx="2"/>
    </defs>
    <g fill="none" fill-rule="evenodd">
        <mask id="b" fill="#fff">
            <use xlink:href="#a"/>
        </mask>
        <use fill="#FFF" xlink:href="#a"/>
        <path fill="#0A17A7" d="M0 0h15v11H0z" mask="url(#b)"/>
        <path fill="#FFF" d="M4.004 7.318H.488V3.682h3.516l-5.01-3.38.813-1.206 6.404 4.32V-.682H9.79v4.098l6.404-4.32.814 1.206-5.01 3.38h3.515v3.636h-3.516l5.01 3.38-.813 1.206-6.404-4.32v4.098H6.21V7.584l-6.404 4.32-.814-1.206 5.01-3.38z" mask="url(#b)"/>
        <path stroke="#DB1F35" stroke-linecap="round" stroke-width=".667" d="M10 3l7-4" mask="url(#b)"/>
        <path stroke="#DB1F35" stroke-linecap="round" stroke-width=".667" d="M11 11l6-4" mask="url(#b)" transform="matrix(1 0 0 -1 0 18)"/>
        <path stroke="#DB1F35" stroke-linecap="round" stroke-width=".667" d="M4 3l-6-4" mask="url(#b)"/>
        <path stroke="#DB1F35" stroke-linecap="round" stroke-width=".667" d="M5 12l-7-5" mask="url(#b)" transform="matrix(1 0 0 -1 0 19)"/>
        <path fill="#E6273E" d="M0 6.6h6.429V11H8.57V6.6H15V4.4H8.571V0H6.43v4.4H0z" mask="url(#b)"/>
    </g>
</svg>
