<svg xmlns="http://www.w3.org/2000/svg" width="19" height="28" viewBox="0 0 19 28">
    <g fill="#4CA6FF" fill-rule="evenodd">
        <path d="M9.5 13c1.93 0 3.5-1.57 3.5-3.502A3.503 3.503 0 0 0 9.5 6C7.57 6 6 7.57 6 9.498A3.504 3.504 0 0 0 9.5 13zm0-6.002c1.379 0 2.5 1.123 2.5 2.5 0 1.38-1.121 2.5-2.5 2.5a2.501 2.501 0 0 1 0-5z"/>
        <path d="M9.501 28l7.601-11.331c2.85-3.923 2.438-10.37-.883-13.795C14.425 1.02 12.04 0 9.501 0 6.964 0 4.576 1.021 2.784 2.871-.537 6.3-.95 12.746 1.89 16.654L9.5 28zM3.5 3.553C5.104 1.907 7.234 1 9.501 1c2.265 0 4.398.907 6 2.553 2.989 3.072 3.358 8.852.777 12.388L9.5 26 2.713 15.925C.144 12.405.511 6.625 3.5 3.553z"/>
    </g>
</svg>
