<svg xmlns="http://www.w3.org/2000/svg" xmlns:xlink="http://www.w3.org/1999/xlink" width="19" height="14" viewBox="0 0 19 14">
    <defs>
        <rect id="a" width="19" height="14" rx="2"/>
    </defs>
    <g fill="none" fill-rule="evenodd">
        <mask id="b" fill="#fff">
            <use xlink:href="#a"/>
        </mask>
        <use fill="#FFF" xlink:href="#a"/>
        <path fill="#30C6E0" d="M0 0h19v14H0z" mask="url(#b)"/>
        <ellipse cx="9.5" cy="7" fill="#FFCD4B" mask="url(#b)" rx="2.5" ry="3"/>
        <path fill="#FFCD4B" d="M10 10.296L8.887 12l-.281-2.03-1.723 1.04.604-1.955-1.992.17 1.372-1.491L5 7l1.867-.734-1.372-1.491 1.992.17-.604-1.955 1.723 1.04L8.887 2 10 3.704 11.113 2l.281 2.03 1.723-1.04-.604 1.955 1.992-.17-1.372 1.491L15 7l-1.867.734 1.372 1.491-1.992-.17.604 1.955-1.723-1.04-.281 2.03L10 10.296zm0-.032c1.757 0 3.182-1.462 3.182-3.264 0-1.802-1.425-3.264-3.182-3.264S6.818 5.198 6.818 7c0 1.802 1.425 3.264 3.182 3.264zM1 1.333C1 1.15 1.156 1 1.339 1h.322c.187 0 .339.144.339.333v.257a.339.339 0 0 1-.339.333H1.34A.333.333 0 0 1 1 1.59v-.257zM1 3.18c0-.184.156-.333.339-.333h.322c.187 0 .339.144.339.333v.257a.339.339 0 0 1-.339.333H1.34A.333.333 0 0 1 1 3.436v-.257zm0 1.847c0-.184.156-.334.339-.334h.322c.187 0 .339.145.339.334v.256a.339.339 0 0 1-.339.333H1.34A.333.333 0 0 1 1 5.282v-.256zm0 1.846c0-.184.156-.334.339-.334h.322c.187 0 .339.145.339.334v.256a.339.339 0 0 1-.339.334H1.34A.333.333 0 0 1 1 7.128v-.256zm0 1.846c0-.184.156-.333.339-.333h.322c.187 0 .339.144.339.333v.256a.339.339 0 0 1-.339.334H1.34A.333.333 0 0 1 1 8.974v-.256zm0 1.846c0-.184.156-.333.339-.333h.322c.187 0 .339.144.339.333v.257a.339.339 0 0 1-.339.333H1.34A.333.333 0 0 1 1 10.82v-.257zm0 1.846c0-.184.156-.333.339-.333h.322c.187 0 .339.144.339.333v.257a.339.339 0 0 1-.339.333H1.34A.333.333 0 0 1 1 12.667v-.257zm1-.923c0-.184.156-.333.339-.333h.322c.187 0 .339.144.339.333v.257a.339.339 0 0 1-.339.333H2.34A.333.333 0 0 1 2 11.744v-.257zm0-1.846c0-.184.156-.333.339-.333h.322c.187 0 .339.144.339.333v.257a.339.339 0 0 1-.339.333H2.34A.333.333 0 0 1 2 9.898V9.64zm0-1.846c0-.184.156-.333.339-.333h.322c.187 0 .339.144.339.333v.256a.339.339 0 0 1-.339.334H2.34A.333.333 0 0 1 2 8.05v-.256zm0-1.846c0-.184.156-.334.339-.334h.322c.187 0 .339.145.339.334v.256a.339.339 0 0 1-.339.333H2.34A.333.333 0 0 1 2 6.205V5.95zm0-1.847c0-.184.156-.333.339-.333h.322c.187 0 .339.144.339.333v.257a.339.339 0 0 1-.339.333H2.34A.333.333 0 0 1 2 4.36v-.257zm0-1.846c0-.184.156-.333.339-.333h.322c.187 0 .339.144.339.333v.257a.339.339 0 0 1-.339.333H2.34A.333.333 0 0 1 2 2.513v-.257z" mask="url(#b)"/>
    </g>
</svg>
