<svg xmlns="http://www.w3.org/2000/svg" width="46" height="13" viewBox="0 0 46 13">
    <g fill="none" fill-rule="evenodd" stroke="#979797" stroke-width="2">
        <path d="M.5 6s19.244 12.455 40 0M38.996 1.525c5.172.464 5.183.6 5.183.6v6.002"/>
    </g>
</svg>
