<svg xmlns="http://www.w3.org/2000/svg" xmlns:xlink="http://www.w3.org/1999/xlink" width="19" height="14" viewBox="0 0 19 14">
    <defs>
        <rect id="a" width="19" height="13.3" rx="2"/>
    </defs>
    <g fill="none" fill-rule="evenodd">
        <mask id="b" fill="#fff">
            <use xlink:href="#a"/>
        </mask>
        <use fill="#FFF" xlink:href="#a"/>
        <rect width="18.5" height="12.8" x=".25" y=".25" stroke="#F5F5F5" stroke-width=".5" rx="2"/>
        <path fill="#0C47B7" d="M0 4.75h19V9.5H0z" mask="url(#b)"/>
        <path fill="#E53B35" d="M0 8.55h19v4.75H0z" mask="url(#b)"/>
    </g>
</svg>
