<svg xmlns="http://www.w3.org/2000/svg" width="22" height="22" viewBox="0 0 22 22">
    <path fill="none" fill-rule="evenodd" stroke="#4CA6FF" d="M18.652 20.764c-3.85 3.26-12.1-5-12.244-5.141-.144-.141-8.395-8.401-5.137-12.255C3.682.516 4.437 1.687 4.786 1.993a27.74 27.74 0 0 1 3.01 4.619c.164.72-1.2 2.323-1.1 2.936.1.613 1.813 2.513 2.54 3.241.727.728 2.626 2.442 3.238 2.543.612.101 2.214-1.262 2.934-1.1a27.7 27.7 0 0 1 4.623 3.013c.3.355 1.471 1.106-1.379 3.519z"/>
</svg>
