<svg xmlns="http://www.w3.org/2000/svg" width="19.5" height="295.5">
    <path fill="none" stroke="#000" d="M12.5.5v15l-7 7 7 6-7 6 6 6-6 8 6 7-5 8 3 7-5 5 5 5-5 6 5 6-5 5 5 6-5 6 5 6-2 12 6 18s-7.534 5.751-7.526 5.79c.024.125 6.526 7.21 6.526 7.21v15l-2 12 8 18S5.213 214.21 5.218 214.493C5.221 214.621 2.5 231.5 2.5 231.5l13 19-8 6 8 7-7 9 7 7-7 8 7 6" opacity=".102"/>
</svg>
