<svg xmlns="http://www.w3.org/2000/svg" xmlns:xlink="http://www.w3.org/1999/xlink" width="24" height="22" viewBox="0 0 24 22">
    <defs>
        <path id="a" d="M0 .075v20.953h23.074V.075z"/>
    </defs>
    <g fill="none" fill-rule="evenodd" transform="translate(.22 .7)">
        <mask id="b" fill="#fff">
            <use xlink:href="#a"/>
        </mask>
        <path fill="#22578C" d="M21.328 1.82a5.961 5.961 0 0 0-8.429 0L1.31 13.41a4.47 4.47 0 0 0 0 6.322c1.44 1.44 3.611 1.672 5.308.738a.739.739 0 0 0 .488-.21l11.59-11.59a2.979 2.979 0 1 0-4.215-4.214L4.998 13.94a.745.745 0 0 0 1.053 1.053l9.483-9.482a1.489 1.489 0 0 1 2.107 0 1.488 1.488 0 0 1 0 2.106L6.577 18.68a2.98 2.98 0 0 1-4.214-4.214l11.59-11.592a4.47 4.47 0 0 1 6.322 0 4.47 4.47 0 0 1 0 6.322L9.739 19.732a.746.746 0 0 0 1.054 1.053L21.328 10.25a5.96 5.96 0 0 0 0-8.429z" mask="url(#b)"/>
    </g>
</svg>
