<svg xmlns="http://www.w3.org/2000/svg" width="227" height="146" viewBox="0 0 227 146">
    <g fill="none" fill-rule="evenodd">
        <path fill="#5CC148" d="M221 129.001V16.998C221 7.618 213.39 0 204.003 0H16.997C7.607 0 0 7.61 0 16.998v112.004C0 138.382 7.61 146 16.997 146h187.006c3.952 0 7.588-1.348 10.475-3.61 3.173 2.266 7.15 3.61 11.522 3.61.07 0 .538-.017 1 0-3.31-1.226-5.713-4.213-6-8v-8.999z"/>
        <path fill="#FFF" d="M19.262 21.392v.008h1.444v-.008c0-1.411.946-2.349 2.35-2.349 1.319 0 2.34.921 2.34 2.117 0 .963-.374 1.61-1.917 3.287l-4.143 4.524V30h7.753v-1.345h-5.611v-.133l2.88-3.096c1.968-2.108 2.532-3.08 2.532-4.324 0-1.901-1.643-3.362-3.793-3.362-2.225 0-3.835 1.527-3.835 3.652zm12.351 3.088h1.52c1.7 0 2.755.863 2.755 2.25 0 1.311-1.12 2.249-2.698 2.249-1.544 0-2.623-.822-2.755-2.1H28.99c.108 2.05 1.785 3.403 4.217 3.403 2.366 0 4.217-1.535 4.217-3.511 0-1.635-.988-2.764-2.615-2.972v-.132c1.312-.316 2.1-1.362 2.1-2.79 0-1.743-1.668-3.137-3.76-3.137-2.283 0-3.769 1.278-3.918 3.353h1.453c.124-1.286 1.029-2.05 2.407-2.05 1.378 0 2.3.813 2.3 2.034 0 1.245-.964 2.125-2.325 2.125h-1.453v1.278zm8.459 5.603c.597 0 1.079-.49 1.079-1.08 0-.597-.482-1.078-1.08-1.078-.589 0-1.078.481-1.078 1.079 0 .59.49 1.079 1.079 1.079zm6.615.2c-2.697 0-4.25-2.292-4.25-6.276 0-3.951 1.57-6.267 4.25-6.267 2.665 0 4.234 2.324 4.234 6.292 0 3.976-1.544 6.25-4.234 6.25zm0-1.304c1.768 0 2.731-1.76 2.731-4.972 0-3.18-.98-4.956-2.73-4.956-1.752 0-2.748 1.793-2.748 4.956 0 3.204.98 4.972 2.747 4.972zm10.194 1.303c2.482 0 4.183-1.66 4.183-4.092 0-2.357-1.594-4.01-3.868-4.01-1.104 0-1.95.341-2.532 1.022h-.132l.34-3.844h5.512v-1.336H53.7l-.655 6.79h1.402c.49-.855 1.387-1.345 2.474-1.345 1.569 0 2.648 1.12 2.648 2.764 0 1.644-1.07 2.74-2.673 2.74-1.41 0-2.44-.864-2.573-2.159h-1.47c.134 2.067 1.76 3.47 4.027 3.47zm6.731-.199c.598 0 1.08-.49 1.08-1.08 0-.597-.482-1.078-1.08-1.078-.589 0-1.079.481-1.079 1.079 0 .59.49 1.079 1.08 1.079zm2.93-8.69v.007h1.445v-.008c0-1.411.946-2.349 2.35-2.349 1.319 0 2.34.921 2.34 2.117 0 .963-.374 1.61-1.918 3.287l-4.142 4.524V30h7.753v-1.345H68.76v-.133l2.88-3.096c1.968-2.108 2.532-3.08 2.532-4.324 0-1.901-1.644-3.362-3.793-3.362-2.225 0-3.835 1.527-3.835 3.652zm13.93 8.89c-2.698 0-4.25-2.292-4.25-6.276 0-3.951 1.568-6.267 4.25-6.267 2.664 0 4.233 2.324 4.233 6.292 0 3.976-1.544 6.25-4.234 6.25zm0-1.304c1.767 0 2.73-1.76 2.73-4.972 0-3.18-.98-4.956-2.73-4.956-1.752 0-2.748 1.793-2.748 4.956 0 3.204.98 4.972 2.747 4.972zM89.576 30h1.494V18.022h-1.486l-3.187 2.291v1.577l3.046-2.208h.133V30zm5.072 0h1.569l5.329-10.592v-1.386h-7.678v1.336h6.184v.133L94.649 30zM24.284 50H19.61V38.022h4.582c2.2 0 3.545 1.154 3.545 2.988 0 1.245-.913 2.374-2.067 2.582v.133c1.635.207 2.673 1.328 2.673 2.913 0 2.109-1.511 3.362-4.06 3.362zm-3.18-10.658v3.843h2.391c1.81 0 2.731-.647 2.731-1.917 0-1.22-.863-1.926-2.349-1.926h-2.773zm0 9.338h2.956c1.8 0 2.747-.73 2.747-2.117 0-1.386-.98-2.091-2.889-2.091h-2.814v4.208zM31.746 50l4.54-6.674h.133V50h1.428v-8.948H36.42l-4.54 6.674h-.133v-6.674h-1.428V50h1.428zm11.505.15c2.083 0 3.47-1.13 3.47-2.79 0-1.029-.615-1.776-1.802-2.033v-.133c.88-.2 1.453-.996 1.453-1.884 0-1.428-1.104-2.416-3.121-2.416-1.876 0-3.163.93-3.354 2.399h1.411c.117-.722.872-1.187 1.943-1.187 1.17 0 1.71.556 1.71 1.311 0 .897-.581 1.337-1.71 1.337h-1.353v1.195h1.353c1.37 0 2.05.465 2.05 1.486 0 .888-.73 1.51-2.05 1.51-1.12 0-1.868-.456-2.042-1.236h-1.47c.158 1.486 1.57 2.44 3.512 2.44zm6.856-.15l4.54-6.674h.134V50h1.427v-8.948h-1.427l-4.54 6.674h-.134v-6.674H48.68V50h1.427zm14.983-8.948h-7.238v1.195h2.905V50h1.428v-7.753h2.905v-1.195zM74.395 50h1.428v-8.948h-1.428V50zm-4.466-4.88h-1.685v3.685h1.685c1.18 0 1.934-.73 1.934-1.843 0-1.12-.763-1.843-1.934-1.843zM66.817 50v-8.948h1.427v2.872h1.685c2.05 0 3.362 1.179 3.362 3.038 0 1.86-1.311 3.038-3.362 3.038h-3.112zm12.509.083c.597 0 1.079-.49 1.079-1.08 0-.597-.482-1.078-1.08-1.078-.589 0-1.078.481-1.078 1.079 0 .59.49 1.079 1.079 1.079zm0-6.383c.597 0 1.079-.49 1.079-1.08 0-.597-.482-1.078-1.08-1.078-.589 0-1.078.48-1.078 1.079 0 .589.49 1.079 1.079 1.079zm7.703-2.308v.008h1.444v-.008c0-1.411.946-2.349 2.35-2.349 1.32 0 2.34.921 2.34 2.117 0 .963-.373 1.61-1.917 3.287l-4.142 4.524V50h7.752v-1.345h-5.61v-.133l2.88-3.096c1.967-2.108 2.531-3.08 2.531-4.324 0-1.901-1.643-3.362-3.793-3.362-2.225 0-3.835 1.527-3.835 3.652zm13.928 8.89c-2.697 0-4.25-2.29-4.25-6.275 0-3.951 1.57-6.267 4.25-6.267 2.665 0 4.234 2.324 4.234 6.292 0 3.976-1.544 6.25-4.234 6.25zm0-1.303c1.769 0 2.731-1.76 2.731-4.972 0-3.18-.98-4.956-2.73-4.956-1.752 0-2.748 1.793-2.748 4.956 0 3.204.98 4.972 2.747 4.972zm10.268 1.303c-2.697 0-4.25-2.29-4.25-6.275 0-3.951 1.57-6.267 4.25-6.267 2.665 0 4.234 2.324 4.234 6.292 0 3.976-1.544 6.25-4.234 6.25zm0-1.303c1.769 0 2.731-1.76 2.731-4.972 0-3.18-.979-4.956-2.73-4.956-1.752 0-2.748 1.793-2.748 4.956 0 3.204.98 4.972 2.747 4.972zm8.691-4.499h1.52c1.701 0 2.755.863 2.755 2.25 0 1.311-1.12 2.249-2.698 2.249-1.543 0-2.623-.822-2.755-2.1h-1.445c.108 2.05 1.785 3.403 4.217 3.403 2.366 0 4.217-1.535 4.217-3.511 0-1.635-.988-2.764-2.615-2.972v-.132c1.312-.316 2.1-1.362 2.1-2.79 0-1.743-1.668-3.137-3.76-3.137-2.283 0-3.769 1.278-3.918 3.353h1.453c.124-1.286 1.029-2.05 2.407-2.05 1.378 0 2.3.813 2.3 2.034 0 1.245-.964 2.125-2.325 2.125h-1.453v1.278zM21.104 63.285v-5.263H19.61V70h1.494v-5.52h.35L26.864 70h1.976l-6.101-6.209 5.62-5.769h-1.877l-5.03 5.263h-.349zm12.551 5.586c1.694 0 2.648-1.228 2.648-3.345 0-2.125-.954-3.345-2.648-3.345-1.693 0-2.648 1.22-2.648 3.345 0 2.117.955 3.345 2.648 3.345zm0 1.287c-2.548 0-4.125-1.76-4.125-4.632 0-2.88 1.577-4.632 4.125-4.632 2.549 0 4.126 1.752 4.126 4.632 0 2.872-1.577 4.632-4.126 4.632zM39.74 70h1.427v-4.05h4.55V70h1.427v-8.948h-1.428v3.702h-4.549v-3.702H39.74V70zm13.455-7.753h-2.224v2.524h1.992c1.162 0 1.685-.44 1.685-1.279 0-.747-.448-1.245-1.453-1.245zm-.108 3.719h-2.116v2.839h2.39c1.096 0 1.677-.498 1.677-1.403 0-.996-.664-1.436-1.95-1.436zM49.543 70v-8.948h3.835c1.693 0 2.68.905 2.68 2.29 0 .88-.622 1.71-1.46 1.885v.133c1.137.158 1.86.988 1.86 2.067 0 1.56-1.138 2.573-3.064 2.573h-3.851zm12.418-7.844c-1.428 0-2.424 1.046-2.532 2.631h4.93c-.033-1.585-.979-2.631-2.398-2.631zm2.357 5.528h1.428c-.432 1.536-1.81 2.474-3.769 2.474-2.482 0-4.034-1.793-4.034-4.624 0-2.814 1.577-4.64 4.034-4.64 2.416 0 3.885 1.718 3.885 4.5v.547H59.43v.066c.075 1.768 1.062 2.889 2.582 2.889 1.153 0 1.934-.423 2.307-1.212zm7.86-6.79c2.284 0 3.761 1.818 3.761 4.632 0 2.797-1.486 4.632-3.76 4.632-1.278 0-2.308-.556-2.797-1.503h-.133v4.333H67.82V61.052h1.361v1.494h.133c.573-1.03 1.644-1.652 2.864-1.652zm-.34 7.977c1.644 0 2.624-1.253 2.624-3.345 0-2.092-.98-3.345-2.615-3.345-1.619 0-2.64 1.286-2.64 3.345 0 2.05 1.021 3.345 2.632 3.345zm13.473-5.08c-.25-1.594-1.577-2.897-3.752-2.897-2.507 0-4.1 1.81-4.1 4.599 0 2.847 1.601 4.665 4.108 4.665 2.15 0 3.486-1.212 3.744-2.856h-1.445c-.265 1.013-1.104 1.57-2.307 1.57-1.594 0-2.623-1.312-2.623-3.38 0-2.025 1.012-3.311 2.623-3.311 1.286 0 2.075.722 2.307 1.61h1.445zM88.565 70l4.54-6.674h.133V70h1.428v-8.948h-1.428l-4.54 6.674h-.133v-6.674h-1.428V70h1.428zm11.58-4.4h1.684v-3.353h-1.685c-1.179 0-1.934.648-1.934 1.735 0 .946.764 1.619 1.934 1.619zm1.684 4.4v-3.204h-1.536L98.011 70h-1.702l2.499-3.47c-1.262-.357-2.026-1.286-2.026-2.515 0-1.843 1.312-2.963 3.362-2.963h3.113V70h-1.428zm4.93.083c.598 0 1.08-.49 1.08-1.08 0-.597-.482-1.078-1.08-1.078-.589 0-1.078.481-1.078 1.079 0 .59.49 1.079 1.079 1.079zm0-6.383c.598 0 1.08-.49 1.08-1.08 0-.597-.482-1.078-1.08-1.078-.589 0-1.078.48-1.078 1.079 0 .589.49 1.079 1.079 1.079zm10.227.78h1.52c1.7 0 2.755.863 2.755 2.25 0 1.311-1.12 2.249-2.698 2.249-1.544 0-2.623-.822-2.756-2.1h-1.444c.108 2.05 1.785 3.403 4.217 3.403 2.366 0 4.217-1.535 4.217-3.511 0-1.635-.988-2.764-2.615-2.972v-.132c1.311-.316 2.1-1.362 2.1-2.79 0-1.743-1.668-3.137-3.76-3.137-2.283 0-3.769 1.278-3.918 3.353h1.452c.125-1.286 1.03-2.05 2.408-2.05s2.299.813 2.299 2.034c0 1.245-.963 2.125-2.324 2.125h-1.453v1.278zm16.585 4.665c.73 0 1.22-.73 1.22-1.826 0-1.12-.473-1.818-1.22-1.818s-1.228.714-1.228 1.818.49 1.826 1.228 1.826zm0 1.063c-1.494 0-2.557-1.196-2.557-2.89 0-1.684 1.063-2.88 2.557-2.88s2.548 1.187 2.548 2.88c0 1.694-1.054 2.89-2.548 2.89zm-6.931-6.625c-1.494 0-2.557-1.195-2.557-2.888 0-1.685 1.063-2.88 2.557-2.88s2.548 1.186 2.548 2.88c0 1.693-1.054 2.888-2.548 2.888zM126.507 70h-1.527l4.573-6.242 4.2-5.736h1.511l-4.648 6.358-4.109 5.62zm.133-7.479c.73 0 1.22-.73 1.22-1.826 0-1.12-.473-1.818-1.22-1.818s-1.229.714-1.229 1.818.49 1.826 1.229 1.826zM21.453 84.546h1.685c1.81 0 2.84.839 2.84 2.183 0 1.295-1.097 2.225-2.782 2.225-1.66 0-2.789-.822-2.922-2.075H18.83c.108 2.042 1.851 3.403 4.383 3.403 2.415 0 4.3-1.535 4.3-3.511 0-1.718-1.13-2.79-2.657-2.947v-.133a2.807 2.807 0 0 0 2.142-2.747c0-1.868-1.594-3.204-3.843-3.204-2.383 0-3.935 1.278-4.084 3.353h1.452c.125-1.27 1.096-2.025 2.574-2.025 1.51 0 2.382.805 2.382 2.009 0 1.253-.996 2.141-2.407 2.141h-1.619v1.328zm10.716 4.358c1.47 0 2.557-.963 2.557-2.24v-.823L32.319 86c-1.362.091-1.96.564-1.96 1.461 0 .913.773 1.444 1.81 1.444zm-.265 1.254c-1.735 0-3.022-1.03-3.022-2.665 0-1.602 1.179-2.523 3.262-2.648l2.582-.157v-.814c0-1.104-.689-1.71-2.025-1.71-1.071 0-1.818.407-2.017 1.112h-1.445c.191-1.436 1.602-2.382 3.511-2.382 2.184 0 3.404 1.12 3.404 2.98V90h-1.362v-1.32h-.132c-.581.955-1.56 1.478-2.756 1.478zm9.803-4.557h1.685v-3.354h-1.685c-1.179 0-1.934.648-1.934 1.735 0 .946.764 1.619 1.934 1.619zM43.392 90v-3.204h-1.536L39.574 90h-1.702l2.498-3.47c-1.261-.357-2.025-1.286-2.025-2.515 0-1.843 1.312-2.963 3.362-2.963h3.113V90h-1.428zm7.479-7.753h-2.225v2.524h1.992c1.163 0 1.686-.44 1.686-1.279 0-.747-.449-1.245-1.453-1.245zm-.108 3.719h-2.117v2.839h2.39c1.097 0 1.678-.498 1.678-1.403 0-.996-.664-1.436-1.951-1.436zM47.219 90v-8.948h3.835c1.693 0 2.68.905 2.68 2.29 0 .88-.622 1.71-1.46 1.885v.133c1.137.158 1.86.988 1.86 2.067 0 1.56-1.138 2.573-3.064 2.573H47.22zm10.35-5.205v-3.743h-1.427V90h1.428v-4.076h.39L61.546 90h1.85l-4.258-4.731 4.101-4.217h-1.735l-3.544 3.743h-.39zM66.37 90l4.54-6.674h.133V90h1.427v-8.948h-1.427l-4.54 6.674h-.134v-6.674h-1.427V90h1.427zm9.603.083c.598 0 1.08-.49 1.08-1.08 0-.597-.482-1.078-1.08-1.078-.59 0-1.079.481-1.079 1.079 0 .59.49 1.079 1.08 1.079zm0-6.383c.598 0 1.08-.49 1.08-1.08 0-.597-.482-1.078-1.08-1.078-.59 0-1.079.48-1.079 1.079 0 .589.49 1.079 1.08 1.079zM86.614 90h1.494V78.022h-1.486l-3.187 2.291v1.577l3.046-2.208h.133V90zm8.65.282c-2.699 0-4.25-2.29-4.25-6.275 0-3.951 1.568-6.267 4.25-6.267 2.664 0 4.233 2.324 4.233 6.292 0 3.976-1.544 6.25-4.234 6.25zm0-1.303c1.767 0 2.73-1.76 2.73-4.972 0-3.18-.98-4.956-2.73-4.956-1.752 0-2.748 1.793-2.748 4.956 0 3.204.98 4.972 2.747 4.972zm6.167-7.587v.008h1.444v-.008c0-1.411.946-2.349 2.349-2.349 1.32 0 2.34.921 2.34 2.117 0 .963-.373 1.61-1.917 3.287l-4.142 4.524V90h7.753v-1.345h-5.611v-.133l2.88-3.096c1.968-2.108 2.532-3.08 2.532-4.324 0-1.901-1.644-3.362-3.793-3.362-2.225 0-3.835 1.527-3.835 3.652zm-81.82 16.63h4.523c2.266 0 3.835 1.594 3.835 3.876 0 2.242-1.602 3.827-3.851 3.827h-3.014V110H19.61V98.022zm1.493 1.328v5.047h2.64c1.702 0 2.69-.913 2.69-2.499 0-1.643-.955-2.548-2.69-2.548h-2.64zm11.605 9.554c1.47 0 2.557-.963 2.557-2.24v-.823l-2.408.158c-1.361.091-1.959.564-1.959 1.461 0 .913.772 1.444 1.81 1.444zm-.266 1.254c-1.735 0-3.021-1.03-3.021-2.665 0-1.602 1.179-2.523 3.262-2.648l2.582-.157v-.814c0-1.104-.69-1.71-2.026-1.71-1.07 0-1.818.407-2.017 1.112H29.78c.19-1.436 1.602-2.382 3.511-2.382 2.183 0 3.403 1.12 3.403 2.98V110h-1.361v-1.32h-.133c-.58.955-1.56 1.478-2.756 1.478zm14.136-6.367c-.249-1.594-1.577-2.897-3.751-2.897-2.507 0-4.101 1.81-4.101 4.599 0 2.847 1.602 4.665 4.109 4.665 2.15 0 3.486-1.212 3.743-2.856h-1.444c-.265 1.013-1.104 1.57-2.307 1.57-1.594 0-2.624-1.312-2.624-3.38 0-2.025 1.013-3.311 2.624-3.311 1.286 0 2.075.722 2.307 1.61h1.444zm4.84 2.83L53.535 110h1.694l-3.08-4.532 3.038-4.416H53.57l-2.1 3.328h-.133l-2.125-3.328h-1.702l3.096 4.474L47.542 110h1.619l2.125-3.378h.133zm8.832 2.25c1.693 0 2.648-1.228 2.648-3.345 0-2.125-.955-3.345-2.648-3.345-1.694 0-2.648 1.22-2.648 3.345 0 2.117.954 3.345 2.648 3.345zm0 1.287c-2.549 0-4.126-1.76-4.126-4.632 0-2.88 1.577-4.632 4.126-4.632 2.548 0 4.125 1.752 4.125 4.632 0 2.872-1.577 4.632-4.125 4.632zm11.695-1.353v-6.558h-3.395l-.282 3.827c-.083 1.087-.315 2.042-.739 2.598v.133h4.416zm-5.486 3.56h-1.345v-3.56h.747c.656-.432.98-1.56 1.063-2.764l.348-4.99h6.101v7.754h1.428v3.56h-1.345V110H66.46v2.366zM83.9 110h1.427v-8.948H83.9V110zm-4.466-4.88h-1.685v3.685h1.685c1.178 0 1.934-.73 1.934-1.843 0-1.12-.764-1.843-1.934-1.843zM76.32 110v-8.948h1.428v2.872h1.685c2.05 0 3.362 1.179 3.362 3.038 0 1.86-1.312 3.038-3.362 3.038H76.32zm12.51.083c.597 0 1.078-.49 1.078-1.08 0-.597-.481-1.078-1.079-1.078-.59 0-1.079.481-1.079 1.079 0 .59.49 1.079 1.08 1.079zm0-6.383c.597 0 1.078-.49 1.078-1.08 0-.597-.481-1.078-1.079-1.078-.59 0-1.079.48-1.079 1.079 0 .589.49 1.079 1.08 1.079zm7.702-2.308v.008h1.445v-.008c0-1.411.946-2.349 2.349-2.349 1.32 0 2.34.921 2.34 2.117 0 .963-.373 1.61-1.917 3.287l-4.142 4.524V110h7.753v-1.345h-5.612v-.133l2.88-3.096c1.968-2.108 2.533-3.08 2.533-4.324 0-1.901-1.644-3.362-3.794-3.362-2.224 0-3.835 1.527-3.835 3.652zm9.828 0v.008h1.445v-.008c0-1.411.946-2.349 2.349-2.349 1.32 0 2.34.921 2.34 2.117 0 .963-.373 1.61-1.917 3.287l-4.142 4.524V110h7.753v-1.345h-5.611v-.133l2.88-3.096c1.967-2.108 2.532-3.08 2.532-4.324 0-1.901-1.644-3.362-3.794-3.362-2.224 0-3.835 1.527-3.835 3.652zM119.128 110h1.494V98.022h-1.486l-3.187 2.291v1.577l3.046-2.208h.133V110zm14.792-7.753v-1.195h-5.728V110h1.428v-7.753h4.3zm6.084-1.353c2.283 0 3.76 1.818 3.76 4.632 0 2.797-1.486 4.632-3.76 4.632-1.278 0-2.308-.556-2.797-1.503h-.133v4.333h-1.428v-11.936h1.361v1.494h.133c.573-1.03 1.644-1.652 2.864-1.652zm-.34 7.977c1.643 0 2.623-1.253 2.623-3.345 0-2.092-.98-3.345-2.615-3.345-1.619 0-2.64 1.286-2.64 3.345 0 2.05 1.021 3.345 2.632 3.345zm6.06 1.129h1.427v-4.05h4.549V110h1.428v-8.948H151.7v3.702h-4.549v-3.702h-1.428V110zM24.35 130.282c2.548 0 4.441-1.42 4.84-3.619h-1.52c-.381 1.386-1.651 2.241-3.32 2.241-2.308 0-3.752-1.884-3.752-4.889 0-3.005 1.444-4.897 3.744-4.897 1.652 0 2.93.97 3.328 2.515h1.52c-.357-2.308-2.325-3.893-4.848-3.893-3.254 0-5.28 2.407-5.28 6.275 0 3.86 2.034 6.267 5.288 6.267zm6.906-12.26h4.524c2.266 0 3.835 1.594 3.835 3.876 0 2.242-1.602 3.827-3.851 3.827H32.75V130h-1.494v-11.978zm1.494 1.328v5.047h2.64c1.702 0 2.69-.913 2.69-2.499 0-1.643-.955-2.548-2.69-2.548h-2.64zm16.137 9.305H43.11v-10.633h-1.494V130h7.271v-1.345zm2.939 1.428c.597 0 1.079-.49 1.079-1.08 0-.597-.482-1.078-1.08-1.078-.589 0-1.079.481-1.079 1.079 0 .59.49 1.079 1.08 1.079zm0-6.383c.597 0 1.079-.49 1.079-1.08 0-.597-.482-1.078-1.08-1.078-.589 0-1.079.48-1.079 1.079 0 .589.49 1.079 1.08 1.079zm10.226.78h1.519c1.702 0 2.756.863 2.756 2.25 0 1.311-1.12 2.249-2.698 2.249-1.544 0-2.623-.822-2.756-2.1H59.43c.108 2.05 1.785 3.403 4.217 3.403 2.365 0 4.216-1.535 4.216-3.511 0-1.635-.987-2.764-2.614-2.972v-.132c1.311-.316 2.1-1.362 2.1-2.79 0-1.743-1.669-3.137-3.76-3.137-2.283 0-3.769 1.278-3.918 3.353h1.452c.125-1.286 1.03-2.05 2.407-2.05 1.378 0 2.3.813 2.3 2.034 0 1.245-.963 2.125-2.324 2.125h-1.453v1.278zm7.695-3.088v.008h1.444v-.008c0-1.411.946-2.349 2.35-2.349 1.319 0 2.34.921 2.34 2.117 0 .963-.374 1.61-1.917 3.287l-4.143 4.524V130h7.753v-1.345h-5.611v-.133l2.88-3.096c1.968-2.108 2.532-3.08 2.532-4.324 0-1.901-1.643-3.362-3.793-3.362-2.225 0-3.835 1.527-3.835 3.652zm20.07.855v-1.195H84.09V130h1.428v-7.753h4.3zm6.085-1.353c2.283 0 3.76 1.818 3.76 4.632 0 2.797-1.485 4.632-3.76 4.632-1.278 0-2.307-.556-2.797-1.503h-.133v4.333h-1.428v-11.936h1.362v1.494h.133c.572-1.03 1.643-1.652 2.863-1.652zm-.34 7.977c1.644 0 2.623-1.253 2.623-3.345 0-2.092-.98-3.345-2.615-3.345-1.618 0-2.64 1.286-2.64 3.345 0 2.05 1.022 3.345 2.632 3.345zm6.06 1.129h1.427v-4.05h4.549V130h1.428v-8.948h-1.428v3.702h-4.549v-3.702h-1.428V130z"/>
    </g>
</svg>
